{
  "I18N.LANGUAGE": "Italiano",
  "I18N.MAINTAINERS": "FabioC",

  "WFRP4E.system.title" : "Warhammer Fantasy Roleplay 4th Edition",
  "WFRP4E.system.description" : "A comprehensive system for running grim and perilious games of Warhammer Fantasy Roleplay in the Foundry VTT environment.",

  "SETTINGS.InitRule" : "Regole per l'Iniziativa",
  "SETTINGS.InitHint" : "Configura il metodo da utilizzare per decidere chi agirà per primo in iniziativa.",
  "SETTINGS.InitDefault" : "Default (dall'Iniziativa più alta alla più bassa, utilizzando l'Agilità per i pareggi)",
  "SETTINGS.InitSL" : "Si effettua un test di Iniziativa, chi ottiene più SL va per primo",
  "SETTINGS.InitD10" : "Si lancia un d10 e si somma l'Iniziativa, chi fa più alto va per primo",
  "SETTINGS.InitD10Agi" : "Si lancia un d10, Si sommano Bonus di Iniziativa e Bonus di Agilità, chi fa più alto va per primo",
  "SETTINGS.CapAdvIB" : "Limitare i vantaggi all'IB",
  "SETTINGS.CapAdvIBHint" : "Setta il numero massimo di Vataggi al bonus di Iniziativa del personaggio.",
  "SETTINGS.FastSL" : "LS Veloci",
  "SETTINGS.FastSLHint" : "Determina gli LS con la regola opzionale a pag 152.",
  "SETTINGS.TestsAbove100" : "Test superiori 100%",
  "SETTINGS.TestsAbove100Hint" : "Usa la regola opzionale per le prove superiori al 100% come descritto a pag 151. Un successo in una prova garantisce +1 LS per ogni 10% per cui la Caratteristica o Abilità testata eccede il 100%.",
  "SETTINGS.CriticalsFumblesAllTests" : "Critici e Fumbles su tutte le Prove",
  "SETTINGS.CriticalsFumblesAllTestsHint" : "Tirare un doppio su ogni prova produce un Successo/Fallimento Eccezionale.",
  "SETTINGS.ExtendedTests" : "Prove Prolungate e 0 LS",
  "SETTINGS.ExtendedTestsHint" : "Tirate un +/- 0 in una Prova Prolungata risulta in un +1/-1 rispettivamente (p155).",
  "SETTINGS.TestDialogAutoPopulate" : "I Testi dei dialoghi si popolano automaticamente",
  "SETTINGS.TestDialogAutoPopulateHint" : "Questa opzione riepie in automatico i dialoghi per i test. Pe esempio: Impugnare un arma Difensiva include automaticamente 'Bonus LS' nei dialoghi dei tiri per le armi da mischia. Questo avviene solo in caso non sia il turno del personaggio/png oppure quando impugna un arma Accurata o Imprecisa nel proprio turno",
  "SETTINGS.TestDialogDefaultDifficulty" : "Difficoltà di default per le prove al di fuori del combattimento",
  "SETTINGS.TestDialogDefaultDifficultyHint" : "Imposta la difficoltà predefinita di una prova su Media se non c'è un combattimento. Al di fuori del combattimento, o se deselezionata, la difficoltà predefinita è Impegnativa. In ogni caso, questo può essere ignorato nella finestra di dialogo delle Prove.",
  "SETTINGS.NpcAverageChar" : "Imposta le Caratteristiche medie per ogni PNG",
  "SETTINGS.NpcAverageCharHint" : "L'immissione di un valore di specie riconosciuto per un PNG imposta automaticamente le sue caratteristiche sul valore medio per la specie.",
  "SETTINGS.PartialChannelling" : "Incanalare Parzialmente",
  "SETTINGS.PartialChannellingHint" : "Una regola comune che migliora la flessibilità della canalizzazione. Invece di richiedere che la LS raggiunga il VL dell'incantesimo, puoi invece lanciarla in qualsiasi momento con la CN ridotta dalla LS ottenuta finora.",
  "SETTINGS.RoundSummary" : "Visualizza riepilogo round",
  "SETTINGS.RoundSummaryHint" : "Quando un round finisce, mostra tutti i combattenti con le rispettive condizioni.",
  "SETTINGS.StatusTurnStart" : "Mostra lo stato del combattente all'inizio del turno",
  "SETTINGS.StatusTurnStartHint" : "Quando un combattente inizia il proprio turno, viene mostrato il suo stato (condizioni e modificatori). Questo messaggio di stato è identico a quello mostrato facendo clic con il pulsante destro del mouse sul combattente.",
  "SETTINGS.FocusTurnStart" : "Focus all'inizio del turno",
  "SETTINGS.FocusTurnStartHint" : "All'inizio del turno di un combattente, la telecamera si muove su di lui",
  "SETTINGS.HideTestData" : "Nascondi i dati delle prove",
  "SETTINGS.HideTestDataHint" : "Le chat di delle Prove del GM non mostrano ai giocatori dati sensibili dei PNG.",
  "SETTINGS.ManualChatCards" : "Schede chat manuali",
  "SETTINGS.ManualChatCardsHint" : "Mostra il risultato del tiro vuoto da compilare se vengono utilizzati dadi fisici.",
  "SETTINGS.PlayerBrowser" : "Accesso del giocatore alla ricerca",
  "SETTINGS.PlayerBrowserHint" : "Consenti ai giocatori di accedere alla ricerca degli oggetti.",
  "SETTINGS.DangerousCrits" : "Critici Pericolosi",
  "SETTINGS.DangerousCritsHint" : "Se un attore viene ridotto a meno di 0 ferite e il numero di ferite negative è maggiore della R dell'attore, il tiro critico viene effettuato con un modificatore pari al Modificatore critico pericoloso per ogni ferita negativa maggiore della R dell'attore.",
  "SETTINGS.DangerousCritsMod" : "Modificatore critico pericoloso",
  "SETTINGS.DangerousCritsModHint" : "L'importo con cui modificare il tiro critico.",
  "SETTINGS.WeaponLength" : "Lunghezza dell'arma",
  "SETTINGS.WeaponLengthHint" : "Usa la lunghezza dell'arma per applicare i modificatori come descritto dalla regola a pagina 297.",
  "SETTINGS.SoundEffects" : "Effetti sonori",
  "SETTINGS.SoundEffectsHint" : "Aggiunge effetti sonori a varie azioni contestuali.",
  "SETTINGS.CustomCursor" : "Cursore Warhammer",
  "SETTINGS.CustomCursorHint" : "Usa un cursore di Warhammer stilizzato (aggiorna per applicare).",
  "SETTINGS.AutoFillAdv" : "Riempi automaticamente i Vantaggi",
  "SETTINGS.AutoFillAdvHint" : "Riempi automaticamente la casella 'modificatore' nella finestra di dialogo di lancio con il bonus dato dai Vantaggi. Disabilita questa opzione se usi regole diverse per i Vantaggi.",
  "SETTINGS.LimitEquippedWeapons" : "Limita le armi equipaggiate",
  "SETTINGS.LimitEquippedWeaponsHint" : "Limita il numero di armi equipaggiate: consente di equipaggiare solo 1 arma a due mani o 2 armi a una mano.",

  "SHEET.Close" : "Chiudi",
  "SHEET.Configure" : "Configura Scheda",
  "SHEET.Token" : "Configura Token",
  "SHEET.Import" : "Importa",
  "SHEET.Post" : "Posta nella chat",

  "SHEET.NestedWarning" : "Impossibile aggiungere un contenitore oltre il quarto contenitore nidificato.",
  "SHEET.LocationWarning" : "Rimuovere il contenitore prima di modificarne la posizione",
  "SHEET.SkillMissingWarning" : "Non hai questa abilità",
  "SHEET.NonCurrentCareer" : "Questa non è la tua attuale carriera.",
  "SHEET.AddSkillTitle" : "Aggiungi abilità di carriera",
  "SHEET.AddSkillPrompt" : "Vuoi aggiungere questa abilità?",
  "SHEET.AddTalentTitle" : "Aggiungere un talento di carriera",
  "SHEET.AddTalentPrompt" : "Vuoi aggiungere questo Talento? (Costa 100 PE)",
  "SHEET.RefundXPTitle" : "Ripristinare PE?",
  "SHEET.RefundXPPrompt" : "Vuoi rimborsare l'esperienza?",
  "SHEET.CareerSkill" : "Cambiare abilità di carriera",
  "SHEET.CareerSkillPrompt" : "Stai cambiando la specializzazione di un'abilità nella tua attuale carriera. Vuoi applicare questo cambiamento anche alla carriera?",
  "SHEET.MeleeWeaponHeader" : "Arma/i da mischia",
  "SHEET.RangedWeaponHeader" : "Arma/i a distanza",
  "SHEET.ArmourAP" : "PA Armatura",
  "SHEET.ArmourPenalties" : "Penalità di armatura",
  "SHEET.ShieldAP" : "PA Scudo",
  "SHEET.TB" : "Bonus Resistenza",
  "SHEET.CreateItem" : "Crea Oggetto",
  "SHEET.PostItem" : "Posta oggetto nella chat",
  "SHEET.EditItem" : "Modifica oggetto",
  "SHEET.Dropdown" : "Espandi Oggetto",
  "SHEET.DeleteItem" : "Cancella Oggetto",
  "SHEET.RemoveItem" : "Rimuovi Oggetto",
  "SHEET.EncCount" : "Contatore Ingombro",
  "SHEET.MaxEnc" : "Ingombro massimo",
  "SHEET.VeryEnc" : "Molto Ingombrato",
  "SHEET.Encumbered" : "Ingombrato",
  "SHEET.UnEnc" : "Scarico: nessun modificatore",
  "SHEET.EncAbbrev" : "Ing",
  "SHEET.QtyAbbrev" : "Qta",
  "SHEET.CountEncOn" : "Fare clic per non contare l'ingombro di questo contenitore (come un carretto)",
  "SHEET.CountEncOff" : "Fai clic per contare l'ingombro di questo contenitore (come uno zaino che stai trasportando)",
  "SHEET.CountEncTT" : "Aggiungi questo ingombro all'ingombro del personaggio (deseleziona se non trasportato, ad esempio un carrello)",
  "SHEET.PettySpell" : "Incantesimi Minori",
  "SHEET.LoreSpell" : "Incantesimi del Sapere",
  "SHEET.CN" : "Valore di Lancio",
  "SHEET.SL" : "Livelli di Successo Incancalati",
  "SHEET.CareerToolTip": "Contrassegna una carriera come 'Attuale' per popolare quest'area",
  "SHEET.CharAbbrev": "Car.",
  "SHEET.AdvAbbrev": "Avan.",
  "SHEET.BonusChar": "Il bonus della caratteristica selezionata viene aggiunto al Valore per calcolare il danno",
  "SHEET.Offhand": "Mano secondaria",
  "SHEET.NewExtendedTest": "Nuova Prova Prolungata",
  "SHEET.NewTrapping": "Nuovo Oggetto",
  "SHEET.NewCritical": "Nuovo Critico",
  "SHEET.NewInjury": "Nuova Ferita",
  "SHEET.DoesDamage": "Infligge Danni",
  "SHEET.DamageValue": "Valore del Danno",


  "ACTOR.BasicSkillsTitle" : "Aggiungi Abilità Base",
  "ACTOR.BasicSkillsPrompt": "Aggiungi un Abilità Base?",
  "ACTOR.PreparationError" : "Qualcosa è andato storto durante la preparazione dei dati dell'attore: ",
  "ACTOR.AddBasicSkills" : "Aggiungi Abilità Base",
  "ACTOR.ImportStatBlock" : "Importa blocco statistiche",

  "ITEM.PenniesValue" : "Valore (in d)",
  "ITEM.MeleeDamage" : "Danno da mischia",
  "ITEM.RangedDamage" : "Danno a Distanza",
  "ITEM.TwoHanded" : "Due Mani",
  "ITEM.WeaponDamaged" : "Arma danneggiata da",
  "ITEM.ShieldDamaged" : "<b>Danneggiata</b> - PA Ridotta di",
  "ITEM.TrappingType" : "Tipo Oggetto",
  "ITEM.MutationType" : "Tipo Mutazione",
  "ITEM.CountOwnerEnc" : "Conta per l'ingombro del proprietario?",
  "ITEM.ArmourType" : "Tipo Armatura",
  "ITEM.AmmunitionType" : "Tipo Munizioni",
  "ITEM.AmmunitionGroup" : "Gruppo di Munizioni",
  "ITEM.ConsumesAmmo" : "Conusma Munizioni",
  "ITEM.ConsumesAmmoTT" : "Se il gruppo di munizioni è 'Nessuno', la quantità dell'oggetto verrà consumata.",
  "ITEM.CountEnc" : "Conta Ing",
  "ITEM.SkillModifier" : "Modificatore Abilità?",
  "ITEM.SkillModifierTT" : "Mostra il modificatore nella casella 'penalità' delle abilità",
  "ITEM.PrayerType" : "Tipo di Preghiera",
  "ITEM.TalentMax" : "Massimale Talento",
  "ITEM.TalentTests" : "Prova Talento",
  "ITEM.IsGrouped" : "Ambito",
  "ITEM.CostModifier" : "Modificatori Costo PE",
  "ITEM.CostModifierTT" : "Applica un modificatore al costo in PE quando avanzi di questa abilità",
  "ITEM.ReloadingWeapon" : "Ricarica {weapon}",
  "ITEM.CreateReloadTest" : "Creata una Pprova prolungata per ricaricare {weapon}",
  "ITEM.ReloadError" : "Impossibile trovare la prova prolungata di ricarica associata",
  "ITEM.ReloadFinish" : "Prova prolungata di ricarica completata",

  "Basic" : "Base",
  "Advanced" : "Avanzata",
  "Qualities" : "Qualità",
  "Flaws" : "Difetti",
  "Location" : "Locazione",
  "Penalty" : "Penalità",
  "Penalties" : "Penalità",
  "Max" : "Massimale",
  "Tests" : "Prove",
  "Specification" : "Specifiche",
  "Price" : "Prezzo",
  "Encumbrance" : "Ingombro",
  "Availability" : "Disponibilità",
  "Special" : "Speciale",
  "Special Ammo" : "Munizioni Speciali",
  "Specialization" : "Specializzazione",
  "Reach" : "Portata",
  "Contraction" : "Contagio",
  "Incubation" : "Incubazione",
  "Duration" : "Durata",
  "Symptoms" : "Sintomi",
  "Permanent" : "Permanente",
  "Status" : "Stato",
  "Status Tier" : "Grado Status",
  "Status Standing" : "Levatura Status",
  "Class" : "Classe",
  "Group" : "Gruppo",
  "Personal Details" : "Dettagli Personalis",
  "Characteristics" : "Caratteristiche",
  "Characteristic" : "Caratteristica",
  "Main" : "Principale",
  "Skills" : "Abilità",
  "Skill" : "Abilità",
  "Skill Type" : "Tipo Abilità",
  "Talents": "Talenti",
  "Talent": "Talento",
  "Times Taken": "Nr Presi",
  "Combat": "",
  "Magic": "Magia",
  "Religion": "Religione",
  "Trappings": "Averi",
  "Notes": "Note",
  "Income" : "Guadagno",
  "Wounds" : "Ferite",
  "RestRecover" : "Riposare & Recuperare Ferite",
  "Modifier" : "Modificat",
  "Modifiers" : "Modificatori",
  "Range" : "Portata",
  "Target" : "Bersaglio",
  "Damage" : "Danni",
  "Ammunition" : "Munizioni",
  "Magic Missile" : "Proiettile Magico",
  "Lore" : "Sapere",
  "Lore Effect" : "Effetto del Sapere",
  "CN" : "VN",
  "SL" : "LS",
  "Wearable" : "Indossabile",
  "Choose" : "Scegli",
  "Roll" : "Tira",
  "Advantage" : "Vantaggio",
  "None" : "Nessuno",
  "Free" : "Gratuito",
  "Armour" : "Armatura",
  "Mutation" : "Mutazione",
  "Mutations" : "Mutations",
  "Injury" : "Ferita",
  "Injuries" : "Ferite",
  "Criticals" : "Critici",
  "Equipped" : "Equipaggiato",
  "Worn" : "Indossato",
  "Blessing" : "Benedizione",
  "Miracle" : "Miracolo",
  "Physical" : "Fisico",
  "Mental" : "Mentale",
  "Success" : "Successo",
  "Cast" : "Lancio",
  "Channel" : "Incanalare",
  "Test" : "Prova",
  "WeaponTest" : "Prova con Arma",
  "CastingTest" : "Prova di Lancio",
  "ChannellingTest" : "Channelling Test",
  "PrayerTest" : "Prova di Preghiera",
  "Opposed" : "Cotrapposto",
  "Failure" : "Fallimento",
  "Astounding" : "Eccezionale",
  "Impressive" : "Impressionante",
  "Marginal" : "Marginale",
  "Critical" : "Critico",
  "Critical Wound" : "Ferita Critica",
  "Critical Wounds" : "Ferite Critiche",
  "Experience" : "Esperienza",
  "Spent" : "Spesa",
  "Corruption" : "Corruzione",
  "Fumble" : "Fumble",
  "Misfire" : "Fa cilecca",
  "Unopposed" : "Incontrastato",
  "Head" : "Testa",
  "Body" : "Corpo",
  "Right Arm" : "Braccio Destro",
  "Left Arm" : "Braccio Sinistro",
  "Right Leg" : "Gamba Destra",
  "Left Leg" : "Gamba Sinistra",
  "Arms" : "Braccia",
  "Legs" : "Gambe",
  "Spell" : "Incantesimi",
  "Total" : "Totale",
  "Carries" : "Trasporta",
  "Memorized" : "Memorizzati",
  "Initial" : "Base",
  "Advances" : "Avanzam",
  "Current" : "Attuale",
  "Complete" : "Completata",
  "Movement" : "Movimento",
  "Move" : "Movimento",
  "Walk" : "Camminata",
  "Run" : "Corsa",
  "Fortune" : "Fortuna",
  "Fate" : "Fato",
  "Resolve" : "Risolutezza",
  "Resilience" : "Resilienza",
  "Career" : "Carriera",
  "Careers" : "Carriere",
  "Level" : "Livello",
  "Biography" : "Biografia",
  "Personal Ambitions" : "Abizione Personale",
  "Party Ambitions" : "Ambizione di Party",
  "Short Term" : "Breve Termine",
  "Long Term" : "Lungo Termine",
  "Motivation" : "Motivazione",
  "Psychology" : "Psicologia",
  "Disease" : "Malattia",
  "Diseases" : "Malattie",
  "GM Notes" : "Note GM",
  "Blessed By" : "Divinità",
  "Sin" : "Peccato",
  "Species" : "Specie",
  "Gender" : "Genere",
  "Career Level" : "Livello di Carriera",
  "Career Group" : "Schema",
  "Career Class" : "Classe",
  "Career Tier" : "Grado Carriera",
  "Earning Skill" : "Abilità Professionale",
  "Age" : "Età",
  "Height" : "Altezza",
  "Weight" : "Peso",
  "Hair Colour" : "Colore Capelli",
  "Eye Colour" : "Colore Occhi",
  "Distinguishing Mark" : "Tratto Distintivo",
  "Star Sign" : "Segno Stellare",
  "Basic Skills" : "Abilità Base",
  "Grouped & Advanced Skills" : "Gruppi di Abilità e Specializzazioni",
  "Creature Traits" : "Tratti della Creatura",
  "Creature Trait" : "Tratto della Creatura",
  "Creature Overview" : "PAnoramica della Creatura",
  "Trained Skills" : "Abilità Addestrata",
  "Traits" : "Tratti",
  "Randomize Attributes" : "Attributi Casuali",
  "Character Name" : "Nome del Personaggio",
  "Extra" : "Extra",
  "Exp" : "Pe",
  "Details" : "Dettagli",
  "Attributes" : "Attributi",
  "Reroll" : "Ritirare",
  "Description" : "Descrizione",
  "Overcast" : "Lancio Critico",
  "Other" : "Altro",
  "Category" : "Categoria",
  "God" : "Dio",
  "Value" : "Valore",
  "AoE" : "AoE",
  "Radius" : "Raggio",
  "Extendable Duration" : "Durata Estendibile",
  "Rollable" : "Tirabile",
  "Roll Characteristics" : "Tira le Caratteristiche",
  "Bonus Characteristic" : "Caratteristiche Bonus",
  "Weapon Group" : "Gruppo d'Arma",
  "Type" : "Tipo",
  "Container" : "Contenitore",
  "Money" : "Denaro",
  "Prayer" : "Preghiera",
  "Trait" : "Tratto",
  "Protects" : "Pretegge",
  "AllowXPSpending" : "Forza l'indicatore di avanzamento",
  "TooltipAllowXPSpending" : "Mostra l'indicatore di avanzamento indipendentemente dalla carriera, ciò ti consentirà di automatizzare l'esperienza spesa.",
  "TooltipSkillModifier" : "Aggiungi un bonus o una penalità arbitraria all'abilità.",
  "Extended Test" : "Prova Estesa",
  "Extended Tests" : "Prove Estese",
  "Target SL" : "LS Bersaglio",
  "Hide Test" : "Nascondi Prova",
  "Hide Progress" : "Nascondi Progressi",
  "Negative SL Possible" : "Possibilità di LS Negativi",
  "Failing Decreases Progress" : "Il Fallimeto riduce i progressi",
  "Effects" : "Effetti",

  "BROWSER.ItemCategories" : "Categorie Oggetti",
  "BROWSER.IncludeWorld" : "Includere Oggetti del Mondo?",
  "BROWSER.FilterOptions" : "Opzioni Filtri",
  "BROWSER.ModifiesDamage" : "Modifica Danni",
  "BROWSER.ModifiesRange" : "Modifica Portata",
  "BROWSER.ItemList" : "Lista Oggetti",

  "ExtendedTest.None" : "Nessuno",
  "ExtendedTest.Reset" : "Ripristina",
  "ExtendedTest.Remove" : "Rimuovi",

  "CHARGEN.AttrInstructions1" : "Trascina questa carta sul tuo foglio. Puoi riorganizzare i tiri al costo di 25 PE. Oppure, se desideri",
  "CHARGEN.AttrInstructions2" : "puoi assegnare i punti e sottrarre 50 PE.",
  "CHARGEN.CareerAdvancement" : "Avanzamenti di Carriera",
  "CHARGEN.CareerInstructions" : "Trascina la carriera sulla scheda del personaggio e assegna 40 avanzamenti alle abilità disponibili. Inoltre, aggiungi 1 talento e assegna 5 avanzamenti tra le caratteristiche contrassegnate. Questi avanzamenti non costano esperienza quindi evita di fare clic sui pulsanti di avanzamento.",
  "CHARGEN.ClassTrappings" : "Equipaggiamento di Classe",
  "CHARGEN.ChooseCareer" : "Scegli Carriera",
  "CHARGEN.RerollCareer" : "Ritira Carriera",
  "CHARGEN.SpeciesInstructions" : "Scegli 6 abilità e trascinale sulla scheda del personaggio se non sono già incluse. Metti 5 avanzamenti in 3 di esse e 3 avanzamenti nelle altre 3. Questi avanzamenti non costano esperienza quindi evita di fare clic sui pulsanti di avanzamento.",
  "CHARGEN.RerollInstructions" : "Puoi ritirare qualsiasi talento duplicato.",
  "CHARGEN.Or" : "O",

  "DIALOG.CastOrChannel" : "Lancia o Incanala",
  "DIALOG.CastChannel" : "Lanciare o Incanalare questo incantesimo?",
  "DIALOG.ChannelSkill" : "Abilità Incanalare",
  "DIALOG.MalignantInf" : "Influeze Maligne",
  "DIALOG.MalignantInfTT" : "Si ottiene un incidente magico minore su tutti i tiri di dao che includno un 8",
  "DIALOG.DeleteItem" : "Sicuro di voler eliminare quest oggetto?",
  "DIALOG.SLBonus" : "LS Bonus",
  "DIALOG.SuccessBonus" : "Successi Bonus",
  "DIALOG.TalentBonus" : "Talenti Bonus",
  "DIALOG.Bonuses" : "Bonus",
  "DIALOG.SLBonusTT" : "LS che viene sempre aggiunto o sottratto (e.g. Difensivo)",
  "DIALOG.SuccessBonusTT" : "LS che si applica solo ai successi (e.g. Talento)",
  "DIALOG.BonusTT" : "Lista di Potenziali Bonus",
  "DIALOG.RollMode" : "Modalità Tiro",
  "DIALOG.Extensions" : "Estensione",
  "DIALOG.CastSkill" : "Tira Abilità",
  "DIALOG.HitLocation" : "Includere un tiro sulla tabella delle locazioni",
  "DIALOG.TableModifier" : "Modificatori",
  "DIALOG.Min1" : "Minimo 1",
  "DIALOG.Charging" : "Carica",
  "DIALOG.TableLookup" : "Ricerca tabella",
  "DIALOG.DualWielding" : "Due Armi",
  "DIALOG.BeginCharacterCreation" : "Iniziare la creazione del personaggio?",
  "DIALOG.DifficultyStep" : "Difficoltà",
  "DIALOG.AdvantageUpdate" : "Aggiorna Vantaggi dell'Attore",

  "CHAT.CareerChoose" : "Scegli la Carriera",
  "CHAT.DamageError" : "Erore nel calcolare i danni:",
  "CHAT.DamageAppliedError" : "Nessun valore di danno. Assicurati che l'attaccante stia usando un oggetto che causa danni, come un'arma.",
  "CHAT.DamageAppliedErrorTiring" : "Non è possibile automatizzare il danno (probabilmente a causa di Stanchezza oppure l'arma / il tratto non è impostato correttamente)",
  "CHAT.DamageApplied" : "Danno Applicato",
  "CHAT.ApplyDamageBasic" : "@DAMAGE datto applicato a <b>{name}</b>",
  "CHAT.DamageShield" : "Scudo",
  "CHAT.CriticalsNullified" : "Critico Annullato",
  "CHAT.DamageAP" : "Dannegga 1 PA su",
  "CHAT.ScatterNote" : "Note: La distanza non può essere più della metà della distanza tra te e il bersaglio",
  "CHAT.ScatterYou" : "Ai tuoi piedi",
  "CHAT.ScatterThem" : "Ai loro piedi",
  "CHAT.ChooseFrom" : "Scegli da",
  "CHAT.MustChoose" : "Devi scegliere",
  "CHAT.CritCast" : "Se l'incantesimo provoca danni, li infligge a",
  "CHAT.TotalPower" : "L'incantesimo viene lanciato, indipendentemente dal suo VN e dal LS ottenuto, ma può comunque essere dissolto",
  "CHAT.UnstoppableForce" : "Se l'incantesimo viene lanciato con successo, non può essere dissolto.",
  "CHAT.ColumnPrompt" : "Seleziona una colonna su cui tirare",
  "CHAT.CriticalWoundsApplied" : "Ferite applicate a",
  "CHAT.OpposedWonAgainst" : "vince contro",
  "CHAT.By" : "da",
  "CHAT.CorruptingInfluence" : "Sussurri Oscuri",
  "CHAT.Resist" : "Resiste",
  "CHAT.ContextualMenu" : "Su questa scheda potrebbe essere disponibile un menu contestuale (clic destro)",
  "CHAT.EditTest" : "Modifica testo",
  "CHAT.OpposedTest" : "Test Contrapposto",
  "CHAT.RemovedConditions" : "Rimuove la Condizione <b>{condition}</b> da <b>{name}</b>",
  "CHAT.WitchcraftMiscast" : "Stregoneria - Ottieni 1 punto corruzione se tiri sugli incidenti di Lancio",
  "CHAT.ChannellingMiscast" : "Lancio fallito dopo l'Incanalare",
  "CHAT.Fear" : "Paura",
  "CHAT.ApplyTT" : "GM: Seleziona un token da applicare.\nGiocatori: Applicato al personaggio assegnato",
  "CHAT.Terror" : "Terrore",
  "CHAT.Apply" : "Applica",
  "CHAT.ApplyError" : "Non puoi applicare questo effetto.",
  "CHAT.EditError" : "Non disponi dell'autorizzazione per modificare questo messaggio",
  "CHAT.TestModifiers.WeaponLength" : "Penalità di -10 a <b>{attacker}</b> per l'arma più corta.",
  "CHAT.TestModifiers.FastWeapon" : "Penallità di -10 a <b>{defender}</b> per difesa contro un arma Veloce.",
  "CHAT.TestModifiers.DefendingLarger" : "{sl} Penalità agli LS di <b>{defender}</b> per aver parato una creatura più grande.",
  "CHAT.TestModifiers.AttackingLarger" : "Bonus di +10 a <b>{attacker}</b> per aver attaccato una creatura più grande.",
  "CHAT.TestModifiers.ShootingLarger" : "Bonus di +{bonus} a <b>{attacker}</b> per aver sparato a un bersaglio più grande.",
  "CHAT.TestModifiers.FinalModifiersTitle": "<b>Modificatore finale</b>:",
  "CHAT.TestModifiers.FinalModifiers": "Bersaglio {target}, {sl}LS a <b>{name}</b>",
  "CHAT.TestModifiers.AttackerMountLarger" : "Bonus di +20 a <b>{attacker}</b> per aver attaccato una cavalcatura più grande.",
  "CHAT.TestModifiers.DefenderMountLarger" : "Penalità di -10 a <b>{attacker}</b> per aver attaccato il cavaliere di una cavalcatura più grande.",
  "CHAT.CommandLine.Help.Commands" : "Tabelle, Condizioni, CreazionePersonaggio, GeneratoreNome, TestDisponibilità, Paga, Crediti, Corruzione",
  "CHAT.CommandLine.Help.Label.Command" : "Comando",
  "CHAT.CommandLine.Help.Label.Example": "Esempio",
  "CHAT.CommandLine.Help.Label.Note": "Note",
  "CHAT.CommandLine.Help.Tables.Title" : "Tabelle",
  "CHAT.CommandLine.Help.Tables.Usage.Command" : "/table <table-name> <column> <modifier>",
  "CHAT.CommandLine.Help.Tables.Usage.Example" : "<br>/table critarm +20<br>/table career human",
  "CHAT.CommandLine.Help.Tables.Usage.Note" : "/table <anything-unrecognized> aprirà il menu delle tabelle",
  "CHAT.CommandLine.Help.Conditions.Title" : "Condizioni",
  "CHAT.CommandLine.Help.Conditions.Usage.Command" : "/cond <condition-name>",
  "CHAT.CommandLine.Help.Conditions.Usage.Example" : "<br>/cond ablaze<br>/cond unconsc",
  "CHAT.CommandLine.Help.Conditions.Usage.Note" : "corrisponderà alla condizione ortograficamente più simile e la visualizzerà (eg. /cond abl == /cond ablaze)",
  "CHAT.CommandLine.Help.CharacterGeneration.Title" : "Creazione el Personaggio",
  "CHAT.CommandLine.Help.CharacterGeneration.Usage.Command" : "/char",
  "CHAT.CommandLine.Help.CharacterGeneration.Usage.Example" : "/char",
  "CHAT.CommandLine.Help.CharacterGeneration.Usage.Note" : "Inizia la creazione del personaggio",
  "CHAT.CommandLine.Help.NameGeneration.Title" : "Creazione Nome",
  "CHAT.CommandLine.Help.NameGeneration.Usage.Command" : "/name",
  "CHAT.CommandLine.Help.NameGeneration.Usage.Example" : "<br>/name dwarf<br>/name helf male<br>/name welf female",
  "CHAT.CommandLine.Help.NameGeneration.Usage.Note" : "Genera un nome nella chat (Accessibile anche cliccando sul nome <Name> su una scheda di un PG, PNG o creatura)",
  "CHAT.CommandLine.Help.AvailabilityTest.Title" : "Test Disponibilità",
  "CHAT.CommandLine.Help.AvailabilityTest.Usage.Command" : "/avail",
  "CHAT.CommandLine.Help.AvailabilityTest.Usage.Example" : "<br>/avail town common<br>/avail city exotic",
  "CHAT.CommandLine.Help.AvailabilityTest.Usage.Note" : "esegue un test di disponibilità per determinare la disponibilità e la quantità di un articolo.",
  "CHAT.CommandLine.Help.Pay.Title" : "Paga",
  "CHAT.CommandLine.Help.Pay.Usage.Command" : "/pay",
  "CHAT.CommandLine.Help.Pay.Usage.Example" : "<br>/pay 3gc2bp<br>/pay 10bp450ss",
  "CHAT.CommandLine.Help.Pay.Usage.Note" : "Se questo comando viene inviato dal GM, creerà una scheda nella chat in cui ai giocatori viene offerto di pagare per l'importo inserito dal GM.",
  "CHAT.CommandLine.Help.Credit.Title" : "Crediti",
  "CHAT.CommandLine.Help.Credit.Usage.Command" : "/credit",
  "CHAT.CommandLine.Help.Credit.Usage.Example" : "<br>/credit 3gc2bp<br>/credit 10bp450ss each",
  "CHAT.CommandLine.Help.Credit.Usage.Note" : "Questo comando è solo per il GM. Una quantità di denaro inserita dal GM verrà divisa tra i giocatori (split, modalità predefinita) o ciascuno dei giocatori riceverà i soldi (each).",
  "CHAT.CommandLine.Help.Corruption.Title" : "Corruzione",
  "CHAT.CommandLine.Help.Corruption.Usage.Command" : "/corruption",
  "CHAT.CommandLine.Help.Corruption.Usage.Example" : "<br>/corruption minor<br>/corruption moderate",
  "CHAT.CommandLine.Help.Corruption.Usage.Note" : "Usa questo comando per spingere i tuoi giocatori a tirare contro le influenze malevole.",
  "CHAT.CommandLine.Help.Link" : "Visualizza il link <a href={link}>Wiki</a> per ulteriori informazioni",

  "Error.SpeciesSkills" : "Impossibile aggiungere abilità per le specie",
  "Error.SpeciesTalents" : "Impossibile aggiungere talenti per le specie",
  "Error.CriticalWound" : "Errore durante l'applicazione delle ferite",
  "Error.DamageCalc" : "Errore nel calcolo del danno",
  "Error.Opposed" : "Impossibile completare il test contrapposto",
  "Error.MacroItemMissing" : "L'attore che controlli non ha un oggetto denominato",
  "Error.NoAmmo" : "Munizioni Finite!",
  "Error.NotLoaded" : "Arma Scarica - Ricaricare",
  "Error.LimitedWeapons" : "Non puoi equipaggiare altre armi.",
  "ERROR.DamagePermission" : "Non sei autorizzato ad applicare danni a questo attore.",
  "ERROR.TokenMount" : "I Token cavalcature token richiedono che tu visualizzi la scena con la cavalcatura.",
  "ERROR.MountNotFound" : "Errore durante il recupero della cavalcatura. Prova a rimuoverla.",
  "ERROR.CharAssigned" : "Nessun personaggio assegnato. Consulta il menu di configurazione del giocatore per assegnare un personaggio.",

  "INCOME.YouEarn" : "Guadagni",
  "INCOME.Failure" : "Hai avuto una settimana molto brutta e non guadagni nulla (o ti hanno rubato i soldi, o qualche incidente simile).",

  "ROLL.CastingSuccess" : "Lancio Riuscito",
  "ROLL.CastingFailed" : "Lancio Fallito",
  "ROLL.ChannelFailed" : "Incanalare Fallito",
  "ROLL.ChannelSuccess" : "Incancalare Riuscito",
  "ROLL.TotalPower" : "Potere Totale",
  "ROLL.UnstoppableForce" : "Forza Inarrestabile",
  "ROLL.CritCast" : "Lancio Critico",
  "ROLL.CritChannel" : "Incancalare Critico",
  "ROLL.MinorMis" : "Incidente Magico Minore",
  "ROLL.MajorMis" : "Incidente Magico Maggiore",
  "ROLL.PrayRefused" : "Preghiera Rifiutata",
  "ROLL.PrayGranted" : "Preghiera Concessa",
  "ROLL.Wrath" : "Ira degli Dei",
  "ROLL.CancelOppose" : "Prova Contrapposta cancellata",
  "ROLL.HitLocation" : "Locazione",
  "ROLL.OpposedStart" : "inizia un test contrapposto!",
  "ROLL.Targeting" : "sta bersagliando",
  "ROLL.MisfireText1" : "La tua arma esplode! Subisci",
  "ROLL.MisfireText2" : "danni al tuo braccio principale.",
  "ROLL.Reverse" : "Tiro invertito",

  "WFRP4E.Reach.Personal" : "Personale",
  "WFRP4E.Reach.VShort" : "Molto Corta",
  "WFRP4E.Reach.Short" : "Corta",
  "WFRP4E.Reach.Average" : "Media",
  "WFRP4E.Reach.Long" : "Lunga",
  "WFRP4E.Reach.VLong" : "Molto Lunga",
  "WFRP4E.Reach.Massive" : "Enorme",

  "WFRP4E.ArmourType.SLeather" : "Cuoio Morbido",
  "WFRP4E.ArmourType.BLeather" : "Cuoio Bollito",
  "WFRP4E.ArmourType.Mail" : "Maglia",
  "WFRP4E.ArmourType.Plate" : "Piastre",
  "WFRP4E.ArmourType.Other" : "Altro",

  "WFRP4E.Availability.Common" : "Comune",
  "WFRP4E.Availability.Scarce" : "Scarsa",
  "WFRP4E.Availability.Rare" : "Rara",
  "WFRP4E.Availability.Exotic" : "Esotica",

  "MARKET.Village" : "Villaggio",
  "MARKET.Town" : "Paese",
  "MARKET.City" : "Città",
  "MARKET.AvailabilityTest" : "Test di Disponibilità",
  "MARKET.AvailWrongCommand": "Parametri Errati. Parametri necessari: <br>Dimesione insediamento [Village,Town,City]<br>Rarita [Common,Scarce,Rare,Exotic]<br>(opt.) modificatore al tiro",
  "MARKET.AvailCommandExample": "Example: /avail Village Rare 10",
  "MARKET.SettlementSize" : "Tipo di Insediamento:",
  "MARKET.Rarity" : "Rarità:",
  "MARKET.InStock": "Disponibile:",
  "MARKET.QuantityAvailable": "Quantità disponibile:",
  "MARKET.RollForAvailability" : "Tiro per la disponibilità",
  "MARKET.SelectSettlementSize" : "Seleziona la dimensione dell'insediamento:",
  "MARKET.PayForItem" : "Paga",
  "MARKET.ReceiveCredit" : "Ricevi",
  "MARKET.Exchange" : "Consolida (Fewest coins)",
  "MARKET.Abbrev.GC" : "CO",
  "MARKET.Abbrev.SS" : "SA",
  "MARKET.Abbrev.BP" : "PO",
  "MARKET.PayCommand" : "Risposta di pagamento",
  "MARKET.PayRequest" : "Richiesta di pagamento",
  "MARKET.CreditCommand" : "Risposta di credito",
  "MARKET.CreditRequest" : "Richiesta di credito",
  "MARKET.CreditCommandNotAllowed" : "Solo il GM può usare questo comando.",
  "MARKET.PaidBy" : "Pagato da:",
  "MARKET.ReceivedBy" : "Ricevuto da:",
  "MARKET.MoneyTransactionWrongCommand" : "Sintassi sbagliata. Si prega di formattare il comando come nei seguenti esempi:",
  "MARKET.PayCommandExample" : "/pay 3gc2bp<br>/pay 450bp<br>/pay 2ss12bp4gc",
  "MARKET.CreditCommandExample" : "/credit 3gc2bp<br>/credit 450bp each<br>/credit 2ss12bp4gc split",
  "MARKET.CantFindMoneyItems" : "Errore. Non riesco a trovare il denaro (GC/BP/SS) nell'inventario del personaggio.",
  "MARKET.NotEnoughMoney" : "Questo personaggio non ha abbastanza soldi pagare.<br>",
  "MARKET.MoneyNeeded" : "Denaro necessario:",
  "MARKET.MoneyAvailable": "Denaro disponibile:",
  "MARKET.Paid": "<b>Pagamento completatp:</b> {number1} GC {number2} SS {number3} BP",
  "MARKET.Credit": "<b>Credito completato:</b> {number1} GC {number2} SS {number3} BP",
  "MARKET.RequestMessageForSplitCredit": "L'ammontare di {initialAmount} verrà suddiviso tra {activePlayerNumber} giocatori per un risultato di:",
  "MARKET.RequestMessageForEachCredit": "L'ammontare di {initialAmount} verrà accreditato a {activePlayerNumber} giocatori per un totale di:",
  "MARKET.NoPlayers": "Nessun giocatore attivo nella sessione di gioco.",
  "MARKET.NoMatchingPlayer": "Nessun nome giocatore corrispondente trovato.",    
  "MARKET.CreditToUser": "L'ammontare di {initialAmount} è stato inviato al giocatore {userName}.",
  "MARKET.NotifyNoActor": "Nessun personaggio è selezionato o associato all'utente corrente",
  "MARKET.NotifyUserMustBePlayer": "Devi essere un giocatore per fare clic su PAGA",

  "WFRP4E.TrappingType.Weapon" : "Armi",
  "WFRP4E.TrappingType.Armour" : "Armature",
  "WFRP4E.TrappingType.Money" : "Denaro",
  "WFRP4E.TrappingType.Ammunition" : "Munizioni",
  "WFRP4E.TrappingType.Container" : "Contenitori",
  "WFRP4E.TrappingType.ClothingAccessories" : "Abiti e Accessori",
  "WFRP4E.TrappingType.FoodDrink" : "Cibo, Bevande e Alloggi",
  "WFRP4E.TrappingType.ToolsKits" : "Strumenti e kit",
  "WFRP4E.TrappingType.BooksDocuments" : "Libri e Documenti",
  "WFRP4E.TrappingType.TradeTools" : "Arnesi del Mestiere e Laboratori",
  "WFRP4E.TrappingType.DrugsPoisonsHerbsDraughts" : "Droghe e Veleni",
  "WFRP4E.TrappingType.Ingredient" : "Ingrediente",
  "WFRP4E.TrappingType.Ingredients" : "Ingredienti",
  "WFRP4E.TrappingType.Misc" : "Oggetti Vari",
  "SECTION.Passengers" : "Passeggeri",

  "WFRP4E.EncumbrancePenalties.Encumbered" : "–1 Movimento (min: 3), –10 Agilità, +1 Fatica da Viaggio",
  "WFRP4E.EncumbrancePenalties.VeryEnc" : "–2 Movimento (min: 2), –20 Agilità (min: 10), +2 Fatica da Viaggio",
  "WFRP4E.EncumbrancePenalties.MaxEnc" : "Non puoi muoverti.",

  "WFRP4E.ConditionName.Ablaze" : "In_Fiamme",
  "WFRP4E.ConditionName.Bleeding" : "Sanguinante",
  "WFRP4E.ConditionName.Blinded" : "Accecato",
  "WFRP4E.ConditionName.Broken" : "Atterrito",
  "WFRP4E.ConditionName.Deafened" : "Assordato",
  "WFRP4E.ConditionName.Entangled" : "Afferrato",
  "WFRP4E.ConditionName.Fatigued" : "Affaticato",
  "WFRP4E.ConditionName.Poisoned" : "Avvelenato",
  "WFRP4E.ConditionName.Prone" : "Prono",
  "WFRP4E.ConditionName.Stunned" : "Stordito",
  "WFRP4E.ConditionName.Surprised" : "Sorpreso",
  "WFRP4E.ConditionName.Unconscious" : "Privo_di_Sensi",
  "WFRP4E.ConditionName.Grappling" : "In Lotta",
  "WFRP4E.ConditionName.Fear" : "Paura",
  "WFRP4E.ConditionName.Defeated" : "Sconfitto",

  "CONDITION.Apply" : "Applica {condition}",
  "CONDITION.ApplyError" : "Non puoi applicare gli effetti di questa condizione a questo attore",

  "Wounds Healed" : "Ferite Curate",
  "ITEM.LoreEffectPlaceholder" : "Sovrascrivi l'effetto del Sapere di default",
  "ITEM.ChannelOverride" : "Sovrascrivi l'Incanalare",
  "ITEM.ChannelPlaceholder" : "Sovrascrivi l'abilità di default per l'Incanalare.",
  "ITEM.DefaultDifficulty" : "Difficultà di default.",
  "ITEM.Progress" : "Progressi",
  "ITEM.DiceRoll" : "Tiro di dado",
  "ITEM.AddSL" : "Aggiungi LS",
  "ITEM.ValuePerOvercast" : "Valore/Sovraccarico Magico",
  "ITEM.ExtraOvercasting" : "Opzioni di Sovraccarico Magico Extra",
  "CHAR.WS": "Ab. di Combattimento",
  "CHAR.BS": "Abilità Balistica",
  "CHAR.S": "Forza",
  "CHAR.T": "Resistenza",
  "CHAR.I": "Iniziativa",
  "CHAR.Ag": "Agilità",
  "CHAR.Dex": "Destrezza",
  "CHAR.Int": "Intelligenza",
  "CHAR.WP": "Volontà",
  "CHAR.Fel": "Socialità",

  "CHARAbbrev.WS": "AC",
  "CHARAbbrev.BS": "AB",
  "CHARAbbrev.S": "F",
  "CHARAbbrev.T": "R",
  "CHARAbbrev.I": "I",
  "CHARAbbrev.Ag": "Agi",
  "CHARAbbrev.Dex": "Des",
  "CHARAbbrev.Int": "Int",
  "CHARAbbrev.WP": "Vol",
  "CHARAbbrev.Fel": "Soc",


  "CHARBonus.WS": "Bonus Ab. di Combattimento",
  "CHARBonus.BS": "Bonus Abilità Balistica",
  "CHARBonus.S": "Bonus di Forza",
  "CHARBonus.T": "Bonus di Resistenza",
  "CHARBonus.I": "Bonus di Iniziativa",
  "CHARBonus.Ag": "Bonus di Agilità",
  "CHARBonus.Dex": "Bonus di Destrezza",
  "CHARBonus.Int": "Bonus di Intelligenza",
  "CHARBonus.WP": "Bonus di Volontà",
  "CHARBonus.Fel": "Bonus di Socialità",
  "Bonus" : "Bonus di",

  "NAME.Armour" : "Armatura",
  "NAME.Hardy" : "Robusto",
  "NAME.Small" : "Piccolo",
  "NAME.Mindless" : "Stupido",
  "NAME.Construct" : "Costrutto",
  "NAME.Swarm" : "Sciame",
  "NAME.Size" : "Taglia",
  "NAME.Ward" : "Protezione",
  "NAME.Unstable" : "Instabile",
  "SPEC.Tiny" : "Minuscola",
  "SPEC.Little" : "Minuta",
  "SPEC.Small" : "Piccola",
  "SPEC.Average" : "Media",
  "SPEC.Large" : "Grande",
  "SPEC.Enormous" : "Enorme",
  "SPEC.Monstrous" : "Mostruosa",

  "NAME.BP" : "Penny d'ottone",
  "NAME.SS" : "Scellino d'argento",
  "NAME.GC" : "Corona d'oro",

  "NAME.BPPlural" : "Penny d'ottone",
  "NAME.SSPlural" : "Scellino d'argento",
  "NAME.GCPlural" : "Corona d'oro",

  "TIER.Gold" : "Oro",
  "TIER.Silver" : "Argento",
  "TIER.Brass" : "Ottone",

  "NAME.Pray" : "Preghiera",
  "NAME.Language" : "Linguaggio",
  "SPEC.Magick" : "Magico",
  "NAME.Channelling" : "Incanalare",
  "NAME.Melee" : "Mischia",
  "NAME.Ranged" : "Distanza",
  "NAME.Endurance" : "Tempra",
  "NAME.Cool" : "Freddezza",
  "NAME.Dodge" : "Schivare",
  "NAME.Stride" : "Falcata",
  "NAME.Unarmed" : "Disarmato",
  "NAME.Stomp" : "Calpestare",
  "NAME.Improvised" : "Arma Improvvisata",
  "NAME.ID" : "Direzione Istintiva",
  "NAME.AA" : "Sintonia Aethyrica",
  "NAME.SMB" : "Colpo Poderoso",
  "NAME.AS" : "Tiro Accurato",
  "NAME.Robust" : "Gagliardo",
  "NAME.PS" : "Anima Pura",
  "NAME.StrongBack" : "Spalle Forti",
  "NAME.Sturdy" : "Robusto",
  "NAME.ConsumeAlcohol" : "Consumare Alcolici",
  "NAME.Stealth" : "Furtività",
  "NAME.PickLock" : "Scassinare",
  "NAME.Champion" : "Campione",
  "NAME.Riposte" : "Contrattacco",
  "NAME.Ambi" : "Ambidestro",
  "NAME.Resolute" : "Risoluto",
  "NAME.DualWielder" : "Stile a Doppia Arma",
  "NAME.Trickriding" : "Nato in Sella",
  "NAME.Corruption" : "Corruzione",
  "NAME.Infected" : "Infetto",
  "NAME.Disease" : "Malattia",
  "NAME.Daemonic" : "Demoniaco",
  "NAME.Undead" : "Non Morto",
  "NAME.Slayer" : "Sventratore",

  "SPEC.Basic" : "Base",
  "SPEC.Cavalry" : "Cavalleria",
  "SPEC.Fencing" : "Scherma",
  "SPEC.Brawling" : "Rissa",
  "SPEC.Flail" : "Flagelli",
  "SPEC.Parry" : "Difensive",
  "SPEC.Polearm" : "In Asta",
  "SPEC.TwoHanded" : "A Due Mani",
  "SPEC.Blackpowder" : "Da Fuoco",
  "SPEC.Bow" : "Archi",
  "SPEC.Crossbow" : "Balestre",
  "SPEC.Entangling" : "Intralcianti",
  "SPEC.Engineering" : "Sperimentali",
  "SPEC.Explosives" : "Esplosive",
  "SPEC.Sling" : "Frombole",
  "SPEC.Throwing" : "Da Lancio",

  "SHEET.DupPrompt" : "Vuoi duplicare questo oggetto?",
  "SHEET.DupTitle" : "Duplica Oggetto",
  "SHEET.SplitPrompt" : "Si prega di inserire l'importo da scindere",
  "SHEET.SplitTitle" : "Scindi Oggetto",
  "SHEET.SwitchToSkills" : "Passa alle abilità",
  "SHEET.SwitchToExtendedTests" : "Passa alle Prove Prolungate",
  "SHEET.TemporaryEffects" : "Effetti Temporanei",
  "SHEET.PassiveEffects" : "Effetti Passivi",
  "SHEET.DisabledEffects" : "Effetti disabilitati",
  "SHEET.AppliedEffects" : "Effetti applicati",
  "SHEET.Source" : "Fonte",
  "SHEET.AdvanceDiseases" : "Malattie avanzate",
  "SHEET.ApplyToTarget" : "Applica al bersaglio",
  "SHEET.ToggleEffect" : "Attiva / disattiva effetto",
  "SHEET.Additional" : "Aggiuntivo",
  "SHEET.ApplyEffect" : "Applica {effect}",
  "SHEET.InvokeEffect" : "Invoca {effect}",


  "Disease.IncubationFinished" : "{disease} incubazione terminata. ",



  "PROPERTY.Accurate": "Accurata",
  "PROPERTY.Blackpowder": "Polvere Nera",
  "PROPERTY.Blast": "Esplosione",
  "PROPERTY.Damaging": "Dannosa",
  "PROPERTY.Defensive": "Difensiva",
  "PROPERTY.Distract": "Distraente",
  "PROPERTY.Entangle": "Intralciante",
  "PROPERTY.Fast": "Veloce",
  "PROPERTY.Hack": "Mozzare",
  "PROPERTY.Impact": "Impatto",
  "PROPERTY.Impale": "Trafiggere",
  "PROPERTY.Penetrating": "Penetrante",
  "PROPERTY.Pistol": "Pistola",
  "PROPERTY.Precise": "Precisa",
  "PROPERTY.Pummel": "Perquotere",
  "PROPERTY.Repeater": "Ripetizione",
  "PROPERTY.Shield": "Scudo",
  "PROPERTY.TrapBlade": "Intrappola Lama",
  "PROPERTY.Unbreakable": "Infrangibile",
  "PROPERTY.Wrap": "Avvolgente",
  "PROPERTY.Dangerous": "Pericolosa",
  "PROPERTY.Imprecise": "Imprecisa",
  "PROPERTY.Reload": "Ricarica",
  "PROPERTY.Slow": "Lenta",
  "PROPERTY.Tiring": "Faticosa",
  "PROPERTY.Undamaging": "Inoffensiva",
  "PROPERTY.Ugly": "Brutto",
  "PROPERTY.Shoddy": "Scadente",
  "PROPERTY.Unreliable": "Inaffidabile",
  "PROPERTY.Bulky": "Voluminoso",
  "PROPERTY.Durable": "Durevole",
  "PROPERTY.Fine": "Bello",
  "PROPERTY.Lightweight": "Leggero",
  "PROPERTY.Practical": "Pratico",

  "PROPERTY.Flexible" : "Flessibile",
  "PROPERTY.Impenetrable" : "Inpenetrabile",
  "PROPERTY.Partial" : "Parziale",
  "PROPERTY.Weakpoints" : "Punto Debole",

  "WFRP4E.BPandEng" : "Armi da Fuoco ed Esplosivi",
  "WFRP4E.Bow" : "Archi",
  "WFRP4E.Crossbow" : "Balestre",
  "WFRP4E.Sling" : "Frombole",

  "ITEM.IsSpec" : "Ha Specializzazione",
  "ITEM.NoSpec" : "No Specializzazione",

  "Instant" : "Istantaneo",

  "AP" : "PA",
  "Scatter" : "Devia",
  "yard" : "metro",
  "yards" : "metri",
  "Ammo" : "Munizione",
  "yds" : "m",

  "NAME.CombatReflexes" : "Riflessi in Combattimento",
  "FORTUNE.Use" : "Usato un punto Fortuna",
  "FORTUNE.UsageRerollText" : "{character} ha utilizzato un punto Fortuna per ripetere un test fallito.",
  "FORTUNE.PointsRemaining" : "Punti Fortuna rimanenti:",
  "FORTUNE.UsageAddSLText" : "{character} ha utilizzato un punto Fortune per aggiungere +1 LS. Il test è stato aggiornato.",
  "DARKDEAL.Use" : "Stringe un Patto Oscuro",
  "DARKDEAL.UsageText" : "{character} ha stretto un patto Oscuro e gli è stato concesso un Reroll per +1 Corruzione.",

  "OPPOSED.DefenderWins" : "<b>{defender}</b> vince contro <b>{attacker}</b> di {SL} LS",
  "OPPOSED.AttackerWins" : "<b>{attacker}</b> vince contro <b>{defender}</b> di {SL} LS",
  "ROLL.Misfire" : "<b>Cilecca:</b> La tua arma Esplode! Subisci {damage} danni al tuo braccio principale.",
  "OPPOSED.FailedRanged" : "<b>Prova fallita</b>: Perdi automaticamente la prva contrapposta",
  "OPPOSED.Daemonic" : "<b>Demoniaco</b>: Colpo ignorato (Tirato {roll})",
  "OPPOSED.Ward" : "<b>Protezione</b>: Colpo Ignorato (Tirato {roll})",

  "CHATOPT.ApplyDamage": "Applica i danni",
  "CHATOPT.ApplyDamageNoAP": "Applica i danni (Ignora PA)",
  "CHATOPT.ApplyDamageNoTB": "Applica i danni (Ignora BR)",
  "CHATOPT.ApplyDamageNoTBAP": "Applica i danni (Ignora BR e PA)",
  "CHATOPT.UseFortuneReroll":"Usa un punto Fortuna per ritirare", 
  "CHATOPT.UseFortuneSL":"Usa un punto Fortuna per aggiungere +1 LS", 
  "CHATOPT.DarkDeal": "Stringi un Patto oscuro per ritirare (+1 Corruption)",
  "CHATOPT.OpposeTarget": "Contrapposto con i Bersagli",

  "TRAVEL.TravelMessageBase": "Da <b>{from}</b> a <b>{to}</b> : ",
  "TRAVEL.TravelMessageRoad": "<br><b>Strada</b> : {road_distance} chilometri<br>&nbsp;&nbsp;In Carrozza : {road_days} giorni, il pericolo è {road_danger_string}<br>&nbsp;&nbsp;Con cavallo pesante : {road_horse_heavy_days} giorni, il pericolo è {road_danger_string}<br>&nbsp;&nbsp;Con cavallo leggero : {road_horse_fast_days} giorni, il pericolo è {road_danger_string}<br>&nbsp;&nbsp;A piedi : {road_feet_days} giorni, il pericolo è {road_danger_feet_string}",
  "TRAVEL.TravelMessageRiver": "<br><b>Fiume</b> : {river_distance} chilometri<br>&nbsp;&nbsp;In Barca : {river_days} giorni, il pericolo è {river_danger_string}",
  "TRAVEL.TravelMessageSea": "<br><b>Mare</b> : {sea_distance} chilometri<br>&nbsp;&nbsp;In Barca : {sea_days} giorni, il pericolo è {sea_danger_string}",
  "TRAVEL.TownPrompt": "Seleziona una città di destinazione",
  "TRAVEL.TownOriginPrompt": "Seleziona una città di partenza",
  "TRAVEL.DangerVeryLow": "Molto basso",
  "TRAVEL.DangerLow" : "Basso",
  "TRAVEL.DangerMedium" : "Medio",
  "TRAVEL.DangerHigh" : "Alto",
  "TRAVEL.DangerVeryHigh" : "Molto Alto",
  "TRAVEL.Helper" : "Le distanze si basano sul documento <i> Distanze di viaggio nell'Impero </i>, di <i> Jackdays </i>. Le distanze sono state riviste in base ai documenti storici medievali sui viaggi. È stata presa in considerazione anche la direzione del flusso dei fiumi. <br> <b> Utilizzo </b>: <b> / travel town </b> o <b> / travel town1 town2 </b> o <b> / viaggio </b> ",


  "VEHICLE.ModEncumbranceTT" : "Ingombro da modifiche: {amt}",
  "VEHICLE.CarryEncumbranceTT" : "Ingombro da Carico: {amt}",
  "VEHICLE.CrewRoles" : "Ruoli della Ciurma",
  "VEHICLE.Skill" : "Abilita",
  "VEHICLE.Modifications" : "Modifiche al veicolo",
  "VEHICLE.ModType" : "Tipo di modifica",


  "CONFIGURE.CalcTokenSize" : "Calcola automaticamente la dimensione dei Token",
  "CONFIGURE.CalcRun" : "Calcola automaticamente la velocità di corsa",
  "CONFIGURE.CalcWalk" : "Calcola automaticamente la velocità di camminata",
  "CONFIGURE.CalcWounds" : "Calcola automaticamente le ferite",
  "CONFIGURE.CalcCritWounds" : "Calcola automaticamente le ferite critiche",
  "CONFIGURE.CalcCorruption" : "Calcola automaticamente la corruzione",
  "CONFIGURE.CalcMaxEnc" : "Calcola automaticamente l'ingombro",
  "CONFIGURE.AddActorEncumbrance" : "Aggiungi ingombro per gli attori",

  "BUTTON.PostBug" : "Pubblica un reclamo",
  "BUTTON.CharacterCreation" : "Creazione del personaggio",

  "EFFECT.TabWFRP" : "WFRP",
  "EFFECT.EffectType" : "Tipo di effetto",
  "EFFECT.EffectApplication" : "Applicazione effetto",
  "EFFECT.PreventDuplicate" : "Previeni effetti duplicati",
  "EFFECT.DodgeMount" : "Schivare su una cavalvatu ra",

  "WFRP4E.GroupDescription.Basic": "Base",
  "WFRP4E.GroupDescription.Fencing": "Scherma",
  "WFRP4E.GroupDescription.Brawling": "Rissa",
  "WFRP4E.GroupDescription.Polearm": "In Asta",
  "WFRP4E.GroupDescription.Twohanded": "A Due Mani",
  "WFRP4E.GroupDescription.Bow": "Archi",
  "WFRP4E.GroupDescription.Entangling": "Intralcianti",
  "WFRP4E.GroupDescription.Sling": "Frombole",
  "WFRP4E.GroupDescription.Cavalry" : "Le Armi da Cavalleria sono progettate per l’uso in sella. Quando il combattente è appiedato le Armi da Cavalleria a due mani contano come Armi a due Mani, mentre quella a una mano sono inutilizzabili",
  "WFRP4E.GroupDescription.Flail" : "Un Personaggio privo dell’Abilità relativa aggiunge il Difetto Pericoloso a tutti i Flagelli, oltre a ignorarne le Qualità.",
  "WFRP4E.GroupDescription.Parry": "Tutte le armi a una mano con la Qualità Difensiva possono essere usate con Mischia (Armi Difensive). Usare queste armi nella mano secondaria per Opporsi a un attacco non subisce il normale -20 (vedere pag. 161).",
  "WFRP4E.GroupDescription.Blackpowder" : "Un Personaggio con Mira (Armi Sperimentali) può usare le Armi da Fuoco senza penalità. Quando un Personaggio usa Armi da Fuoco e tira un Disastro che è anche pari (come 88 o 00), l’arma fa Cilecca e gli esplode in mano. Il Personaggio subisce il Danno pieno al Braccio Primario usando il dado delle unità come LS. L’arma è ovviamente distrutta",
  "WFRP4E.GroupDescription.Crossbow" : "Le Balestre sono relativamente semplici ed è possibile usarle senza avere Avanzamenti nelle relative Abilità. Così facendo, però, l’arma non beneficerà delle proprie Qualità, pur conservandone i Difetti.",
  "WFRP4E.GroupDescription.Engineering" : "Un Personaggio con Mira (Armi da Fuoco) può utilizzare anche le Armi Sperimentali, ma non beneficerà delle loro Qualità, pur subendone i Difetti. Quando un Personaggio usa Armi Sperimentali e tira un Disastro che è anche pari (come 88 o 00), l’arma fa Cilecca e gli esplode in mano. Il Personaggio subisce il Danno pieno al Braccio Primario usando il dado delle unità come LS. L’arma è ovviamente distrutta",
  "WFRP4E.GroupDescription.Explosives" : "Un Personaggio con Mira (Armi Sperimentali) può usare gli Esplosivi senza penalità. Quando un Personaggio usa Armi Esplosive, e tira un Disastro che è anche pari (come 88 o 00), l’arma fa Cilecca e gli esplode in mano. Il Personaggio subisce il Danno pieno al Braccio Primario usando il dado delle unità come LS. L’arma è ovviamente distrutta",
  "WFRP4E.GroupDescription.Throwing" : "Le Armi da Lancio sono relativamente semplici ed è possibile usarle senza avere Avanzamenti nelle relative Abilità. Così facendo, però, l’arma non beneficerà delle proprie Qualità, pur conservandone i Difetti.",

  "WFRP4E.Reach.PersonalDescription" : "Le tue gambe e i tuoi pugni, forse la tua testa e qualsiasi cosa collegata a quelli.",
  "WFRP4E.Reach.VShortDescription" : "Fino a 30cm di lunghezza.",
  "WFRP4E.Reach.ShortDescription" : "Fino a 60cm di lunghezza.",
  "WFRP4E.Reach.AverageDescription" : "Fino a 90cm di lunghezza.",
  "WFRP4E.Reach.LongDescription" : "Fino a 6ocm di lunghezza.",
  "WFRP4E.Reach.VLongDescription" : "Fino a 3metri di lunghezza; può ingaggiare nemici fino a 4 metri di distanza, invece che a soli 2.",
  "WFRP4E.Reach.MassiveDescription" : "Qualcosa di più di 3metri di lunghezza; può ingaggiare nemici fino a 6 metri di distanza, invece che a soli 2.",
  
  "WFRP4E.Properties.Accurate" : "Queste armi a distanza sono facili da usare e conferiscono +10 alle Prove per colpire",
  "WFRP4E.Properties.Blackpowder" : "L’esplosione della polvere da sparo seguita da fumo e confusione può essere terrificante. Chi è bersaglio di un’arma a Polvere Nera deve superare una Prova Media (+20) di Freddezza o subire 1 Atterrito, anche se il colpo lo manca.",
  "WFRP4E.Properties.Blast" : "Tutti i Personaggi entro (Grado) metri dal bersaglio subiscono Danni pari a LS + Danno dell’Arma e tutte le Condizioni inflitte dal colpo originale.",
  "WFRP4E.Properties.Damage" : "Un’arma Dannosa può usare il valore del dado delle unità o il LS per determinare il Danno inflitto. Per esempio, un tiro per colpire di 34 su 52, potrà usare il normale +2 LS o il 4 delle unità. Le armi Inoffensive non possono mai essere Dannose (il Difetto ha la precedenza).",
  "WFRP4E.Properties.Defensive" : "Le armi Difensive sono progettate per parare gli attacchi. Chi ne impugna una ottiene +1 LS alle Prove Contrapposte di Mischia per bloccare un attacco.",
  "WFRP4E.Properties.Distract" : "Queste armi possono essere usate per spingere indietro il nemico grazie alla loro struttura simile a una frusta. Invece di causare Danno, un’arma Distraente può essere usata per spingere indietro un avversario di 1 metro per LS.",
  "WFRP4E.Properties.Entangle" : "Queste armi si avviluppano, bloccando i movimenti. Un avversario colpito con un’arma Intrappolante subisce una Condizione Afferrato con Forza pari a quella dell’attaccante. Finché l’avversario rimane Afferrato non è possibile usare l’arma per altri scopi. L’attaccante può lasciarlo libero in qualsiasi momento desideri.",
  "WFRP4E.Properties.Fast" : "Le armi Rapide sono pensate per colpire così velocemente che l’avversario sarà infilzato ancor prima di tentare la parata. Un’arma Rapida può essere usata per attaccare ignorando il normale Ordine d’Iniziativa, colpendo per primi, per ultimi o quando si desidera. Inoltre, le Prove di Mischia per difendersi da un’arma Rapida subiscono un -10; altre Abilità ignorano questo modificatore. Due avversari con armi Rapide sono costretti ad agire in Ordine d’Iniziativa. Le armi Lente non possono mai essere Rapide (il Difetto ha la precedenza).",
  "WFRP4E.Properties.Hack" : "Queste armi hanno lame pesanti pensate per sfondare le armature con grande facilità. L’armatura o scudo di chi viene colpito subisce 1 Danno, oltre a ogni altro effetto.",
  "WFRP4E.Properties.Impact" : "Alcune armi sono enormi o progettate per causare terribili ferite. Un colpo a segno somma il valore del dado delle unità al Danno inflitto. Le armi Inoffensive non possono mai avere Impatto (il Difetto ha la precedenza)",
  "WFRP4E.Properties.Impale" : "Le armi con Trafiggere possono uccidere con un singolo colpo netto. Causano un Critico con risultati divisibili per 10 (10, 20, 30, ecc.) oltre ai doppi. Se l’effetto viene causato da un’arma a distanza, il proiettile si è incuneato in profondità. Frecce e quadrelli possono essere rimossi con una Prova Impegnativa (+0) di Guarire, mentre le pallottole richiedono un chirurgo (vedere il Talento Chirurgia nel Capitolo 4: Abilità e Talenti). Per ogni freccia, quadrello o proiettile in corpo sarà impossibile guarire 1 Ferita",
  "WFRP4E.Properties.Penetrating" : "Queste armi sono perfette per superare le armature: ignorano i PA delle corazze non in metallo e riducono le altre di 1.",
  "WFRP4E.Properties.Pistol" : "Quest’arma può essere impiegata anche in mischia.",
  "WFRP4E.Properties.Precise" : "Quest’arma è molto precisa e ottiene +1 LS a tutte le Prove d’attacco che ottengono un successo.",
  "WFRP4E.Properties.Pummel" : "Le armi con Percuotere sono ottime per stendere gli avversari senza ucciderli. Un colpo alla Testa con una di esse permette di effettuare una Prova Contrapposta Forza/Tempra. Se l’attaccante vince il bersaglio subisce 1 Stordito.",
  "WFRP4E.Properties.Repeater" : "Quest’arma può scaricare (Grado) colpi, ricaricandosi automaticamente dopo ogni sparo. Quando il caricatore è vuoto bisognerà ricaricarla secondo le normali regole",
  "WFRP4E.Properties.Shield" : "Se si usa quest’arma per bloccare un attacco si ottengono (Grado) Punti Armatura in tutte le Locazioni. Inoltre, uno Scudo di Grado 2 o più può essere usato per Contrastare i proiettili sparati da avversari visibili.",
  "WFRP4E.Properties.Trapblade" : "Alcune armi sono progettate per intrappolare quelle altrui o persino spezzarle. Se si ottiene un Critico mentre ci si difende da una lama, si può decidere di intrappolarla, invece di causare una Ferita Critica. In questo caso, si effettua una Prova Contrapposta di Forza, aggiungendo il LS della precedente Prova di Mischia. In caso di successo l’avversario lascia la presa. Un Successo Incredibile permette di spezzare la lama, a meno che questa possieda la Qualità Infrangibile. In caso di fallimento lo scontro continua normalmente.",
  "WFRP4E.Properties.Unbreakable" : "Quest’arma è di squisita manifattura o costruita con un materiale molto robusto. Non può essere rotta, non si corrode né perde il filo.",
  "WFRP4E.Properties.Wrap" : "Di solito, le armi con Avvolgente hanno catene con pesi, il che le rende difficili da parare. Le Prove di Mischia per bloccarne una subiscono -1 LS, perché il peso supera scudi e lame.",
  "WFRP4E.Properties.Flexible" : "Le armature Flessibili possono essere indossate sotto altre prive di questa Qualità. Benefici e penalità sono cumulativi.",
  "WFRP4E.Properties.Impenetrable" : "Quest’armatura è particolarmente resistente e la maggior parte degli attacchi semplicemente non può penetrarla. Tutte le Ferite Critiche causate da tiri per colpire dispari (come 11 o 13) vengono ignorate.",
  "WFRP4E.Properties.Durable" : "Un oggetto con questa Qualità è stato attentamente costruito con materiali robusti e può subire Danni pari al grado di Durevole prima di incorrere in penalità (vedere Danneggiare Armi e Danneggiare Armature, pag. 296 e 299). Inoltre, ottiene un tiro salvezza di 9+ su 1d10 contro rotture istantanee (per esempio uno Spezzalama, pag. 298). Questa Qualità può essere comprata più volte e ogni acquisto migliora il tiro salvezza di 1 (da 9+ a 8+, ecc.).",
  "WFRP4E.Properties.Fine" : "L’oggetto è stato realizzato con cura per essere piacevole alla vista. È un segno di status e questa Qualità può essere applicata più volte, rendendolo sempre più spettacolare.",
  "WFRP4E.Properties.Lightweight" : "L’oggetto è stato astutamente progettato per essere facile da trasportare. Ridurre l’Ingombro di 1.",
  "WFRP4E.Properties.Practical" : "Questa Qualità identifica oggetti dal carattere prettamente utilitaristico. Le prove fallite con tali oggetti sono modificate di +1 LS. Se si tratta di un pezzo di armatura le penalità collegate sono ridotte di un livello (per esempio, da -30 a -20).",
  "WFRP4E.Properties.Dangerous" : "Alcune armi sono capaci di ferire chi le impugna tanto quanto i nemici. Un fallimento con 9 o 10 sul dado delle unità diventerà un Disastro (vedere Capitolo 5: Regole).",
  "WFRP4E.Properties.Imprecise" : "Le armi imprecise sono difficili da maneggiare, scomode o con una pessima resa. Subiscono -1 LS alle Prove di attacco. Le armi Imprecise non possono mai essere Precise (il Difetto ha la precedenza).",
  "WFRP4E.Properties.Reload" : "Quest’arma richiede tempo per essere ricaricata e per riuscirci è necessario superare una Prova Prolungata di Mira ottenendo (Grado) LS. Se si viene interrotti bisogna ricominciare da capo.",
  "WFRP4E.Properties.Slow" : "Un’arma lenta è pesante, sgraziata e difficile da usare bene. Chi ne impiega una attacca sempre per ultimo durante un Round a prescindere dall’Ordine d’Iniziativa. Inoltre, gli avversari hanno +1 LS per difendersi da questi colpi.",
  "WFRP4E.Properties.Tiring" : "Queste armi sono faticose da manovrare e beneficiano delle loro Qualità Dannosa e Impatto solo nel Turno in cui si Carica.",
  "WFRP4E.Properties.Undamaging" : "Alcune armi non sono molto efficaci contro le armature. I PA vengono raddoppiati contro di esse e, inoltre, non infliggono il minimo di 1 Ferita per colpo a segno.",
  "WFRP4E.Properties.Partial" : "Quest’armatura non copre completamente la Locazione. I risultati pari sul tiro per colpire o i Critici ignorano i PA di una protezione Parziale.",
  "WFRP4E.Properties.Weakpoints" : "Quest’armatura ha piccole falle in cui un avversario abbastanza abile o fortunato può far penetrare una lama. Se l’arma dell’avversario ha la Qualità Trafiggere, i PA di questa protezione vengono ignorati.",
  "WFRP4E.Properties.Ugly" : "L’oggetto è stato realizzato senza nessuna cura per l’estetica e attira molte critiche. Le Prove di socialità collegate possono subire una penalità di -10.",
  "WFRP4E.Properties.Shoddy" : "L’oggetto è stato realizzato da un dilettante o un truffatore e si romperà in caso venga usato in una Prova fallita con un doppio.Le Armature Scadenti si spezzano, se la Locazione subisce un Colpo Critico.",
  "WFRP4E.Properties.Unreliable" : "A causa della scarsa attenzione alla funzionalità, le Prove fallite con questo oggetto subiscono un ulteriore -1 LS. Le penalità delle armature Inaffidabili sono raddoppiate.",
  "WFRP4E.Properties.Bulky" : "L’oggetto è ingombrante e mal realizzato. L’Ingombro viene incrementato di 1 (gli oggetti piccoli non possono avere questo difetto). Abiti e armature Voluminosi contano per Ingombro 1 anche quando vengono indossati e le loro penalità per l’Affaticamento sono raddoppiate.",

  "WFRP4E.LoreDescription.Beasts" : "Ogni volta che un Mago lancia con successo un Incantesimo del Sapere delle Bestie ottiene anche il Tratto @Compendium[wfrp4e-core.traits.pTorrE0l3VybAbtn]{Fear (1)} (pag. 341) per 1d10 Round.",
  "WFRP4E.LoreDescription.Death" : "Chi viene colpito da un Incantesimo del Sapere della Morte è prosciugato della vita; il Mago può assegnare a piacere +1 Condizione @Condition[Affaticato] a ogni bersaglio vivente affetto dagli Incantesimi di questo Sapere. È possibile accumulare solo un Affaticato alla volta in questo modo.",
  "WFRP4E.LoreDescription.Fire" : " Il Mago può causare, a piacere, +1 Condizione @Condition[In Fiame] a tutti i bersagli, a meno che non possiedano a propria volta il Talento Magia Arcana (Fuoco). Inoltre, ogni condizione In Fiamme entro un numero di metri pari al suo Bonus Volontà dal Mago gli conferisce +10 alle Prove di Lancio o Incanalare legate ad Aqshy.",
  "WFRP4E.LoreDescription.Heavens" : " Gli Incantesimi che causano Danni ignorano le armature metalliche e si scaricano contro tutti i bersagli entro 2m, eccetto chi possiede il Talento Magia Arcana (Cieli), causando Danni pari al Bonus Volontà, come un proiettile magico.",
  "WFRP4E.LoreDescription.Metal" : "Gli effetti che causano Danno ignorano le armature metalliche e provocano Danni aggiuntivi pari ai Punti Armatura metallici della Locazione. Per esempio, se un braccio protetto da 2 PA di maglia di ferro venisse colpito subirebbe +2 Danni, ignorando la protezione.",
  "WFRP4E.LoreDescription.Life" : "Un Druido riceve +10 alle Prove di Lancio e Incanalare quando si trova in un ambiente selvaggio. I bersagli viventi – come quelli privi dei Tratti @Compendium[wfrp4e-core.traits.v3uzEthcq0JRar0J]{Daemonic} o @Compendium[wfrp4e-core.traits.PFTD9gDvRWW9uh5g]{Undead} – di un Incantesimo della Vita rimuovono tutte le Condizioni @Condition[Affaticato] e @Condition[Sanguinante] mentre la forza vitale li avvolge. I @Compendium[wfrp4e-core.traits.PFTD9gDvRWW9uh5g]{Undead}, invece, subiscono Danni aggiuntivi pari al Bonus Volontà del Mago, ignorando il Bonus Resistenza e l’Armatura.",
  "WFRP4E.LoreDescription.Light" : "Il Mago può infliggere a piacere 1 Condizione @Condition[Accecato] a uno o più bersagli, che non possiedano il Talento Magia Arcana (Luce). I bersagli con i Tratti @Compendium[wfrp4e-core.traits.v3uzEthcq0JRar0J]{Daemonic} o @Compendium[wfrp4e-core.traits.PFTD9gDvRWW9uh5g]{Undead} subiscono Danni aggiuntivi pari al Bonus Intelligenza del Mago, ignorando il Bonus Resistenza e l’Armatura.",
  "WFRP4E,LoreDescription.Shadow": "Ogni effetto protettivo ammanta il Mago di ombre e fumo, rendendolo in parte incorporeo o lasciando che le lame lo oltrepassino senza recargli danno apparente. Infine, tutti gli effetti che infliggono Danno ignorano i punti Armatura non magici. ",
  "WFRP4E.LoreDescription.Hedgecraft" : " Questi Incantesimi, a causa delle antiche tradizioni e delle credenze a essi collegate, non possono essere lanciati senza ingredienti, che sono parte essenziale del procedimento. Per fortuna, si tratta, di solito, di erbe e piante facili da trovare ai margini degli insediamenti. Effettuando una Prova di Conoscenza (Erbe) per trovare erbe e piante (come descritto a pag. 129), il Mago ottiene 1+LS ingredienti, oppure può acquistarli a 5 penny l’uno.",
  "WFRP4E.LoreDescription.Witchcraft" : "Ogni volta che un praticante di Stregoneria tira sulla Tabella degli Incidenti Magici ottiene anche 1 Punto Corruzione. D’altro canto può causare +1 Condizione @Condition[Sanguinante] a chiunque sia bersaglio di un Incantesimo di questo Sapere. Infine, ogni tentativo di Lanciare o Incanalare questi Incantesimi senza usare ingredienti richiede un tiro sulla Tabella @Table[minormis]{Minor Miscast table}, ma l’ingrediente non fornirà alcuna protezione in caso di un Disastro. Per fortuna, questi materiali sono comuni ed economici, di solito pezzi di piccoli animali. Il prezzo è il VL dell’Incantesimo in penny (invece che in scellini). In alternativa, una Strega può usare l’Abilità Sopravvivere per ottenere 1+LS ingredienti (vedere Raccogliere Cibo ed Erbe, pag. 129).",
  "WFRP4E.LoreDescription.Tzeentch": "I bersagli degli incantesimi del Sapere of Tzeentch vengono lacerati dalla magia mutaforma del Chaos. I bersagli influenzati da un incantesimo del Sapere di Tzeentch devono superare una Prova (+0) Endurance Prova o guadagna +1 Punto Corruzione. Dovrebbero superare il loro Test, ottengono invece +1 Fortune Point, che può essere utilizzato come normale. Questi sono i capricci di Tzeentch.",

  "WFRP4E.Conditions.Ablaze" : "Il Personaggio ha preso fuoco! Di solito ciò accade solo se si indossano abiti infiammabili, ma alcuni effetti magici o divini possono incendiare anche sostanze non combustibili. Alla fine di ogni Round, il Personaggio subisce 1d10 Ferite, ridotte dal Bonus Resistenza e dai Punti Armatura della Locazione meno protetta (minimo 1). Ogni Condizione In Fiamme aggiuntiva aumenta il Danno di +1 (3 In Fiamme causano 1d10+2). Superando una Prova di Atletica si rimuove un In Fiamme, più un altro per ogni LS. La Difficoltà è in base alle circostanze: è più semplice soffocare il fuoco rotolandosi nella sabbia che in una cucina piena di olio.",
  "WFRP4E.Conditions.Bleeding" : "Il Personaggio sanguina copiosamente. Alla fine di ogni Round perde 1 Ferita ignorando ogni modificatore. Inoltre subisce -10 alle Prove per resistere a Ferite Infette, Infezioni Minori o Sangue Marcio (vedere pag. 186). Chi arriva a 0 Ferite non ne subisce altre, ma sviene (diventando Privo di Sensi). Alla fine di ogni Round avrà una probabilità di morire del 10% per Sanguinante. Per esempio, 3 Sanguinante vuol dire che morirà con un tiro di 0-30. Se si ottiene un doppio la ferita si richiude un po’, cancellando un Sanguinante. Non si può riprendere conoscenza prima di avere rimosso tutti i Sanguinante (vedere Ferite a pag. 172). Superando una Prova di Guarire si rimuove un Sanguinante, più un altro per ogni LS. In alternativa, incantesimi o preghiere di guarigione rimuovono un Sanguinante per Ferita risanata. Una volta che tutti i Sanguinante sono rimossi, il Personaggio subisce una Condizione @Condition[Affaticato].",
  "WFRP4E.Conditions.Blinded" : "Accecato Il Personaggio non riesce a vedere, forse a causa di un lampo di luce o di un liquido spruzzato sul viso. Subisce -10 in tutte le Prove che coinvolgono la vista e tutti gli avversari in mischia hanno +10 per colpirlo. Alla fine di ogni Round viene rimosso un Accecato.",
  "WFRP4E.Conditions.Broken" : "Il Personaggio è spaventato, in preda al panico o convinto di stare per morire. Nel proprio Turno deve usare Manovra e Azione per scappare il più velocemente possibile finché non trova un rifugio sicuro lontano dalla vista dei nemici; quindi dovrà usare Azione e Abilità per nascondersi al meglio. Inoltre subisce una penalità di -10 in tutte le Prove eccetto correre e nascondersi. Alla fine di ogni Round, il Personaggio può tentare una Prova di Freddezza per rimuovere un Atterrito, più un altro per ogni LS, a meno che non sia Ingaggiato (vedere pag. 159). La Difficoltà dipende dalle circostanze: è più facile riprendersi mentre si è nascosti in un vicolo (Media +20), che a tre passi da un Demone urlante (Molto Ardua -30). Passare un intero Round nascosto e non in vista del nemico rimuove un Atterrito. Una volta che tutti gli Atterrito sono rimossi, il Personaggio subisce una Condizione @Condition[Affaticato]",
  "WFRP4E.Conditions.Deafened" : "Che sia a causa di un rumore forte o di un colpo alla testa, il Personaggio non riesce a sentire bene. Subisce un -10 in tutte le Prove che coinvolgono l’udito e gli avversari hanno +10 se lo attaccano in mischia sui fianchi o alle spalle (questo bonus non è cumulativo in caso di Condizioni multiple). Alla fine di ogni Round viene rimosso un Assordato, spesso sostituito da un fischio all’orecchio.",
  "WFRP4E.Conditions.Entangled" : "Il Personaggio è bloccato da qualcosa che limita i movimenti (come corde, ragnatele o un nemico muscoloso). Perde la Manovra nel suo turno e ha una penalità di -10 in tutte le azioni che richiedono movimento (compresa la Lotta; pag. 163). Come Azione può tentare una Prova di Forza per rimuovere un Afferrato, più un altro per ogni LS.",
  "WFRP4E.Conditions.Fatigued" : "Il Personaggio è esausto, stressato e bisognoso di riposo. Subisce -10 in tutte le Prove. Di solito, rimuovere Affaticato richiede riposo, una magia o un effetto divino. La Condizione può essere semplicemente frutto del trasportare troppe cose (vedere Ingombro, pag. 293), per cui è sufficiente abbandonarne alcune per recuperare.",
  "WFRP4E.Conditions.Poisoned" : "Il Personaggio è vittima di un veleno o tossina. La Difficoltà delle Prove per sanarlo dipende dalla sostanza. Alla fine di ogni Round la vittima subisce 1 Ferita ignorando tutti i modificatori; inoltre ha -10 in tutte le Prove. Se arriva a 0 Ferite mentre è Avvelenato, il Personaggio non potrà guarire finché tutte queste Condizioni non saranno rimosse. Se cade Privo di Sensi mentre è Avvelenato dovrà superare una Prova di Tempra dopo un numero di Round pari al suo Bonus Resistenza o morire orribilmente. Per maggiori informazioni vedere Ferite a pag. 172. Alla fine di ogni Round può tentare una Prova di Tempra per rimuovere un Avvelenato, più un altro per ogni LS. Una Prova di Guarire può avere lo stesso effetto. Una volta che tutti gli Avvelenato sono rimossi, il Personaggio subisce una Condizione @Condition[Affaticato].",
  "WFRP4E.Conditions.Prone" : "Il Personaggio è caduto a terra, forse perché non ha più Ferite, è inciampato o è stato colpito da qualcosa di piuttosto grande. Nel suo Turno può usare la Manovra solo per rialzarsi o strisciare di metà del suo Movimento in metri (Nota: chi ha 0 Ferite può solo strisciare). Subisce una penalità di -20 in tutte le Prove che richiedono di muoversi e gli avversari in mischia hanno +20 per colpirlo. A differenza di altre Condizioni, Prono non è cumulativo e viene recuperato rialzandosi.",
  "WFRP4E.Conditions.Stunned" : "Il Personaggio è stato colpito in testa o è confuso, probabilmente gli fischiano le orecchie ed è disorientato. Non può compiere Azioni, ma può Manovrare di metà del suo normale Movimento. Può difendersi nelle Prove Contrapposte, eccetto quelle di Linguaggio (Magico). Subisce -10 in tutte le Prove e chi lo attacca in mischia ottiene +1 Vantaggio prima di tirare per colpire. Alla fine di ogni Round può tentare una Prova Impegnativa (+0) di Tempra per rimuovere uno Stordito, più un altro per ogni LS. Una volta che tutti gli Stordito sono rimossi, il Personaggio subisce una Condizione Affaticato",
  "WFRP4E.Conditions.Surprised" : "Il Personaggio è stato colto di sorpresa. Non può compiere né Azione né Manovra nel proprio Turno, né difendersi nelle Prove Contrapposte. Gli avversari che lo attaccano in mischia hanno +20 per colpirlo. Sorpreso non è cumulativo, anche contro più avversari in un Round. Alla fine del Round, o dopo il primo attacco subito, non è più Sorpreso. ",
  "WFRP4E.Conditions.Unconscious" : "Il Personaggio è svenuto, addormentato o comunque inerme. Non può fare nulla nel proprio Turno ed è ignaro di cosa gli accade intorno. Chi lo attacca ottiene i benefici di Non Fallirò! (pag. 171) senza spendere Punti Resilienza. In alternativa, se il GM preferisce, l’attacco lo uccide sul colpo. Gli attacchi a distanza a Bruciapelo hanno lo stesso effetto. La Condizione Privo di Sensi non è cumulativa, anche se viene subita più volte in un Round. Come riprendere i sensi dipende dalle circostanze. Per maggiori informazioni vedere Ferite a pag. 172. Chi spende un Punto Risolutezza per recuperare ma è ancora vittima dell’effetto originale subirà un altro Privo di Sensi alla fine del Round. Una volta ripreso, il Personaggio subisce le Condizioni @Condition[Prono] e @Condition[Affaticato].",
  "WFRP4E.Conditions.Grappling" : "Chi inizia il proprio Turno in Lotta può liberarsi se ha più Vantaggio dell’avversario e non viene considerato Ingaggiato ai fini della Manovra; altrimenti deve effettuare una Prova Contrapposta di Forza come Azione. Se vince, può scegliere una delle seguenti opzioni: <br>1) Infliggere BF+LS Danni, usando la Prova di Forza per determinare la Locazione colpita. I Punti Armatura vengono ignorati, dato che l’attacco è una chiave articolare. 2) Imporre una Condizione Afferrato all’avversario o rimuoverla da se stesso, in più se ne può rimuovere un’altraper ogni LS di cui si è vinta la Prova.",
  "WFRP4E.Conditions.Fear" : "Chi è vittima di Paura subisce -1 LS in tutte le Prove legate alla fonte. Non ci si può avvicinare ad essa senza superare una Prova Impegnativa (+0) di Freddezza. Se, invece, è la fonte ad avvicinarsi, è necessario superare una Prova Impegnativa (+0) di Freddezza per non subire 1 Atterrito.",

  "WFRP4E.SymptomDescriptions.Blight" :  "Tossine mortali invadono il sangue del Personaggio, che è pericolosamente vicino al Portale di Morr. Ogni giorno deve superare una Prova Molto Facile (+60) di Tempra per non spirare (di solito nel sonno, durante un eccesso di febbre o in agonia). Se il sintomo è indicato come (Moderato) la Prova è Facile (+40), se è (Severo) sarà Media (+20).",
  "WFRP4E.SymptomDescriptions.Buboes" :  "Il Personaggio presenta rigonfiamenti dei linfonodi, di solito a inguine, ascelle o collo. Sono molto dolorosi, puzzolenti, disgustosi e possono secernere sangue o pus. Alcuni li considerano segni del favore del Signore della Pestilenza e credono che nascondano futuri piccoli Demoni. È pratica comune inciderli per svuotarli, spesso causando Ferite Purulente nel processo. Il Personaggio subisce una penalità di -10 in tutte le Prove fisiche e, se il bubbone è visibile o maleodorante, anche a quelle di Socialità.",
  "WFRP4E.SymptomDescriptions.Convulsions" :  "L’infezione causa spasmi o tremiti periodici, come se il corpo fosse una marionetta. Il Personaggio subisce una penalità di -10 in tutte le Prove fisiche, mentre il corpo si muove senza controllo. Se le Convulsioni sono indicate come (Moderate) la penalità diventa -20; se sono (Severe) è necessario legare il paziente, rendendolo inerme, per evitare che si ferisca da solo. ",
  "WFRP4E.SymptomDescriptions.CoughsandSneezes" :  "Il Personaggio tossisce e starnutisce, spandendo bacilli e infettando con la propria malattia coloro che si trovano intorno a lui. Tutti coloro che si trovano nello stesso ambiente sono esposti al contagio e devono effettuare una Prova una volta per ora, o per frazione di ora, per non contrarre la malattia di cui il Personaggio è portatore.",
  "WFRP4E.SymptomDescriptions.Fever" :  "Il Personaggio suda, ha la temperatura alta e una brutta cera. Subisce una penalità di -10 in tutte le Prove fisiche e di Socialità.Se la Febbre è (Severa) sarà completamente inerme, subendo la Condizione Privo di Sensi, anche se la spesa di 1 Punto Risolutezza può renderlo cosciente per pochi minuti.",
  "WFRP4E.SymptomDescriptions.Flux" :  "Dopo una serie di borbottii, il Personaggio, pallido e stanco, deve correre di nuovo alla latrina. Ha certamente avuto giorni migliori. Questa situazione si può verificare in qualsiasi momento e ci si aspetta che il Giocatore inserisca queste fermate essenziali nella storia. Inoltre, il GM può imporre la necessità di evacuare una volta per sessione. Il Personaggio ha un numero di Round pari al proprio Bonus Resistenza per trovare un luogo adatto; che lo raggiunga omeno finirà per svuotarsi in modo spettacolare. Se la Diarrea è (Moderata) il GM può imporre il bisogno 2 volte a sessione; se è (Grave) 3 volte e il Personaggio subisce una Ferita ogni volta, mentre espelle sangue e resta disidratato. ",
  "WFRP4E.SymptomDescriptions.Gangrene" :  "La carne del Personaggio diventa nera, terribilmente infetta e non ha intenzione di migliorare. Tirare un 1d100 per determinare la Locazione (vedere Combattimento). Se il risultato è Torso, fortunatamente, la Cancrena non si è radicata; la Testa indica che ha colpito il naso; il Braccio le dita; la Gamba i piedi.Ogni giorno bisogna effettuare una Prova Media (+20) di Tempra. Un successo la tiene a bada, un fallimento la fa peggiorare. Chi accumula più fallimenti del proprio Bonus Resistenza perde l’uso della zona colpita, come se fosse Amputata (vedere Ferite Critiche). Mentre si è affetti dalla Cancrena si subisce un -10 in tutte leProve di Socialità e gli effetti del Sintomo Lesioni. Inoltre, finchéil tessuto necrotizzato non viene rimosso, si subisce il Sintomo Consunzione anche se l’infezione originale è stata debellata.",
  "WFRP4E.SymptomDescriptions.Lingering" :  "Alcune infezioni si rifiutano di sparire e possono peggiorare facilmente. Quando la malattia ha termine, il Personaggio deve superare una Prova di Tempra con la Difficoltà indicata (per esempio, Media o Facile). Se ottiene un Fallimento Marginale, il male perdura per altri 1d10 giorni, un Fallimento (-2) gli causa una Ferita Purulenta; un Fallimento Incredibile (-6) il Sangue Marcio.",
  "WFRP4E.SymptomDescriptions.Malaise" :  "Il Personaggio non si sente affatto bene, è stanco e ha difficoltà a concentrarsi. Subisce 1 Affaticato che può essere rimosso solo guarendo dalla malattia.",
  "WFRP4E.SymptomDescriptions.Nausea" :  "Il Personaggio si sente male e potrebbe vomitare se fa movimenti bruschi. Ogni volta che fallisce una Prova che richiedemovimento, finisce per vomitare. Mentre rigetta o ha i conati subisce 1 Condizione @Condition[Stordito]",
  "WFRP4E.SymptomDescriptions.Pox" :  "Il Personaggio è coperto di pustole, infiammazioni e orrende eruzioni cutanee che non lo rendono certo più attraente. La Vescicole sono prima di tutto un problema estetico, che penalizza di -10 le Prove di Socialità. Inoltre, bisogna ricordarsi di interpretare il continuo grattarsi; chi si vuole trattenere deve superare una Prova Media (+20) di Freddezza. Quando il sintomo termina effettuare una Prova Media (+20) di Freddezza, in caso di fallimento invertire il risultato e la Locazione (vedere Combattimento) indicata avrà una cicatrice permanente, perché il troppo grattarsi l’ha fatta guarire male. Se si tratta della testa, si perde 1 punto di Socialità.",
  "WFRP4E.SymptomDescriptions.Wounded" : "Il Personaggio ha una ferita aperta che non guarisce a causa di un’infezione. Ogni Lesione accumulata rende impossibile guarire 1 delle proprie Ferite, che rimane aperta e dolente, mentre secerne pus. Ogni giorno bisogna superare una Prova Facile (+20) di Tempra per non sviluppare una Ferita Purulenta (se non se ne ha già una). ",
  "WFRP4E.SymptomDescriptions.Delirium" :  "La tua sensibilità va e viene, con momenti di lucidità sostituiti improvvisamente da attacchi di delirio, allucinazioni e terrore. Fai una <b> Prova di Volontà Impegnativa(+0) </b> ogni ora e consulta la tabella @Table[delirium]",
  "WFRP4E.SymptomDescriptions.Swelling" : "Una parte del corpo si gonfia fino a diverse volte le sue dimensioni normali, assumendo un colore rosso o viola e diventando quasi inutilizzabile. La parte del corpo interessata è normalmente in prossimità di una ferita o un morso o il punto in cui una malattia o un'infezione è entrata nel corpo. <br> <br> <b> Testa </b>: gli occhi e la lingua si gonfiano, le guance diventano livide, la mascella è costretta a restare aperta. Mangiare è impossibile, ma i liquidi possono essere sorseggiati in piccole quantità. Tutti i test che richiedono la parola sono 3 step più difficili. <br> <b> Braccio </b>: il braccio e la mano si gonfiano, le articolazioni della spalla e del gomito non possono muoversi e la mano diventa inutile. Per tutta la durata il braccio conta come amputato (WFRP, pagina 180). <br> <b> Corpo </b>: l'intero corpo si gonfia finché il malato non può più indossare vestiti. Tutti i test che coinvolgono il movimento diventano 3 step più difficili. <br> <b> Gamba </b>: la gamba si gonfia in modo grottesco, diventando larga quanto la parte più ampia della coscia per tutta la sua lunghezza. Il piede è quasi indistinguibile. Per tutta la durata la gamba conta come amputata (WFRP, pagina 180).",

  "WFRP4E.SymptomTreatment.Blight" :  "Nessuna efficace",
  "WFRP4E.SymptomTreatment.Buboes" :  "Una Prova di Guarire con Chirurgia permette di incidere un bubbone e togliere la penalità. In caso di fallimento si subisce una Ferita Purulenta. Una volta fatto, bisogna superare una Prova Difficile (-10) di Tempra ogni giorno o altri bubboni si formeranno al posto del primo.",
  "WFRP4E.SymptomTreatment.Convulsions" :  "Alcune erbe rare e preparati alchemici possono attenuare questo sintomo per un giorno, abbassandolo da (Severo) a(Moderato), oppure da (Moderato) a normale. Chi ha l’Abilità Mestiere (Apotecario) e gli ingredienti giusti (che costano fino a 10 scellini a dose) può realizzare questi composti. La medicina già pronta è Rara, di solito genuina (80%) e costa 1 corona per dose, cosa che la pone fuori dalla portata della maggior parte dei cittadini imperiali.",
  "WFRP4E.SymptomTreatment.CoughsandSneezes" :  "Nesuna efficace",
  "WFRP4E.SymptomTreatment.Fever" :  "Ci sono molti rimedi in commercio, spesso disgustosi, che raramente funzionano (solo il 10% è genuino) e costano da pochi penny a diversi scellini. Superare una Prova di Guarire serve a poco, giusto a capire quanto durerà la febbre. Le cure genuine rimuovono la Febbre (non quella Severa) se il paziente supera una Prova Impegnativa (+0) di Tempra.",
  "WFRP4E.SymptomTreatment.Flux" :  "Le cure autentiche sono rare (10% di quelle in commercio), ma molti apotecari ed erboristi giurano che le loro sono infallibili. I prezzi variano, in base alla località, da pochi penny a una borsa d’argento. Una cura efficace permette di trattenersi per un numero di ore pari al proprio Bonus Resistenza.",
  "WFRP4E.SymptomTreatment.Gangrene" :  "L’unica alternativa efficace è l’amputazione",
  "WFRP4E.SymptomTreatment.Lingering" :  "Ci sono molte cure per le infezioni persistenti, anche piuttosto economiche, appena uno scellino. Purtroppo, sono quasi tutte fasulle o basate su idee sbagliate. Solo il 10% delle cure acquistate sono efficaci e permettono di evitare la Prova di Tempra, se somministrate il giorno corretto determinato da una Prova di Guarire",
  "WFRP4E.SymptomTreatment.Malaise" :  "Le medicine per il Malessere costano da qualche penny a pochi scellini. Se sono genuine (75%) permettono di effettuare una Prova Impegnativa (+0) di Tempra per ignorare i sintomi per 1 giorno. ",
  "WFRP4E.SymptomTreatment.Nausea" :  "I rimedi per la Nausea sono Comuni, di solito genuini (60%) e costano una trentina di penny. Se sono autentici, superare una Prova Impegnativa (+0) di Tempra permette di ignorare la Nausea per un numero di ore pari al proprio Bonus Resistenza. ",
  "WFRP4E.SymptomTreatment.Pox" : "Le Vescicole sono molto comuni e così sono i rimedi, di solito creme e oli. I templi maggiori di Shallya hanno spesso una scorta di crema gratuita (anche se ci aspettano degli oboli), apotecari ed erboristi vendono rimedi a poco prezzo (6-7 penny per ottimana di trattamento e efficaci al 90%). Sgradevole a vedersi, una crema applicata sulla parte interessata porta la Difficoltà delle Prove per non grattarsi a Molto Facile (+60).",
  "WFRP4E.SymptomTreatment.Wounded" :  " superare una Prova di Guarire quotidiana assicura che la Lesione rimanga pulita e permette di evitare la Prova di Tempra.",
  "WFRP4E.SymptomTreatment.Delirium" :  "Alcune autorità trattano il delirio come parte della febbre, prescrivendo le stesse terapie. I rimedi costano da pochi centesimi a pochi scellini e il 10% è autentico. <br> <br> Con la medicina corretta, un test <b> Impegnativo(+0) di Guarire </b>effettuato con successo elimina le allucinazioni per @Roll[1d10] ore. <br> <br> È anche comune sedare i pazienti deliranti con un farmaco tranquillizzante, come Fiorelunare o anche Ombranotturna, per mantenere il paziente a suo agio fino a quando la condizione non è passata, mandandoli in un sonno irregolare fino a quando non o guariscono o muoiono.",
 "WFRP4E.SymptomTreatment.Swelling" :  "La maggior parte dei trattamenti prevede l'immersione della parte interessata, o talvolta dell'intero corpo, in un bagno di acqua ghiacciata per ridurre il calore che accompagna i gonfiori. Un <b> Prova Prolungata Ardua(-20) di Guarire </b> che richiede +3 LS riduce il gonfiore di <b> @Roll[2d10] </b> ore. Ogni test dura un'ora. Al paziente viene data una condizione di affaticamento +1 per ogni test eseguito durante il processo. <br> <br> Alcuni medici invece salassano il paziente con una lama o delle sanguisughe. Una <b> Prova Prolungato di Guarire </b> con esito positivo che richiede +4 LS e Attrezzi del Mestiere(Medico) riduce il gonfiore di (@Roll [1d10] + il bonus di Resistenza del paziente) ore. Ogni test ha una difficoltà base di <b> Impossibile (-50) </b> e dura mezz'ora.",
  "ClassTrappings.Academics": "Abiti, Borsello, Pugnale, Borsa con Occorrente per Scrivere e 1d10 fogli di Pergamena",
  "ClassTrappings.Burghers": ": Abiti, Borsello, Cappa, Cappello, Pugnale, Borsa con il Pranzo.",
  "ClassTrappings.Courtiers": "Abiti Eleganti, Pugnale, Borsello con Pinzette, Curette per Orecchie e Pettine",
  "ClassTrappings.Peasants": "Abiti, Borsello, Cappa, Pugnale, Borsa con Razioni (1 giorno)",
  "ClassTrappings.Rangers": "Abiti, Borsello, Cappa, Pugnale, Zaino con Acciarino, Coperta, Razioni (1 giorno).",
  "ClassTrappings.Riverfolk": " Abiti, Borsello, Cappa, Pugnale, Borsa con Bottiglia di Alcolico",
  "ClassTrappings.Rogues": "Abiti, Pugnale, Borsa con 2 Candele, 1d10 Fiammiferi, Cappuccio o Maschera",
  "ClassTrappings.Warriors": "Abiti, Arma a Una Mano, Borsello, Pugnale"
}
