{
  "name": "Locazioe",
  "die": "1d100",
  "hide": true,
  "rows": [{
    "description": "Testa",
    "result": "head",
    "range": [1, 19]
  },
  {
    "description": "Corpo",
    "result": "body",
    "range": [20, 100]
  }]
}
